<?xml version="1.0" encoding="utf-8"?>
<!-- Generator: Adobe Illustrator 21.1.0, SVG Export Plug-In . SVG Version: 6.00 Build 0)  -->
<svg version="1.1" id="Layer_1" xmlns="http://www.w3.org/2000/svg" xmlns:xlink="http://www.w3.org/1999/xlink" x="0px" y="0px"
	 viewBox="0 0 400 300" style="enable-background:new 0 0 400 300;" xml:space="preserve">
<style type="text/css">
	
		.st0{fill:#F8F8F8;stroke:#000000;stroke-width:0.75;stroke-linecap:round;stroke-linejoin:round;stroke-miterlimit:10;stroke-dasharray:1.9794;}
	.st1{fill:#E5001C;}
	.st2{fill:#F8F8F8;}
	.st3{fill:#72809B;stroke:#FFFFFF;stroke-width:1.2;stroke-miterlimit:10;}
	.st4{fill:none;stroke:#333333;stroke-miterlimit:10;}
	.st5{fill:#053193;stroke:#053193;stroke-width:1.0112;stroke-miterlimit:10;}
	.st6{fill:#053193;}
	.st7{fill:#FFFFFF;}
	.st8{fill:#666666;}
	.st9{fill:#053193;stroke:#053193;stroke-width:1.0246;stroke-miterlimit:10;}
	.st10{fill:#053193;stroke:#053193;stroke-width:0.8745;stroke-miterlimit:10;}
</style>
<g>
	<g id="amk_2020">
		<path class="st0" d="M209.3,99.9l3.1-2.2l0.6-4l5.5-5.8c1.2-2.1,0.1-4.1-0.1-6.2c-4.3-6.2-5.9-6.7-7.9-7.9c-1-3.6-3.4-8.1-7.6-7.7
			c-1.2,0.3-2.1,1.6-2.1,1.6l-1.5-1.2l4.6-4.3c0,0-0.7-5.6-1.6-8.1c-0.4-1-1.8-3-1.8-3c-3-4.9-7.9-3.3-12.4,0l-4.3,0.4l-6.1-4.6
			l0.3-7.4l0.6-0.9l1.3,7l2.7,2.8l3.7-1l2.2-2.4l4.3-0.9l0.3-5.8l-2.4-4.6l-3.7-3.3l-10.2-4.4l-1.2-1.6l0.1,0.3l-29,17l-0.4,2.4
			l7.7,11.7l-0.1,0.6L140.3,65l-1.2,1l-1.6,5.9v0.1l-3.7,5.9l-0.3,0.1l-5.2,1.8l-0.3,1l-0.3,0.3l-2.7,0.6h-0.1l-3.4-0.4l-0.3-0.1
			l-8.9-10.2l-8.9-7.3l-9.9-4.1l-0.3,4.3v0.1l-1.3,3.3v0.1l-38.7,44.9l10.5,6.2h0.1l5.5,5l0.1,0.6l-1.9,3.6l2.7-0.6h0.1l2.4,0.4h0.1
			l3.1,1.9l0,0l0.1,0.1l2.4,4.9l0,0l5,15.7l0.7,1.9l2.8,1.8l0.1,0.6l-5.3,10.2l4.7,1.2l5-2.1l3.4-2.1l0.6,0.1l4.6,11.4l2.2,3.1
			l4.3,2.7l8.6,2.4l6.8,1.6l4.3,0.9h5.9l29.8-7.3l-1-2.5l-0.6,0.1l-0.4,0.1l-0.4,0.1h-0.4l-0.1-0.1l-1.3-0.7l-0.9-0.1l-0.6,0.1
			l-0.9,0.1l-0.7,0.6l-0.4-0.3l-0.6-0.1l-2.1-0.9l-2.5-1.5l-0.7-0.7l-0.4-0.3l0.6-0.7l0.1-0.6l0.7-1.6l0.6-0.4l0.9,0.1l0.4-0.4
			l0.4-0.6l-0.4-1.5l-1.5-1.6h-1.5l-0.6,0.1l-0.4-0.4l0.1-2.1l-0.1-1.9l0.4-1.2l0.7-0.7l1.3-0.9v-0.6l1.6-1h0.7l1-0.7l1.2-0.9
			l-0.6-0.6l-0.1-0.4H153l-1.2-0.6l-1.8-0.1l-0.6,0.3l-0.6-0.4l-0.4,0.1l0.1,0.4l-1.3,0.3l-1.2,0.3l-1.5,0.1l-1.2,0.4l-1.3,0.6
			l-1.6,0.7l-0.7,0.4l-0.4,0.6l-1.3,1l-0.4,0.7v0.7l-0.3,1.3l-0.3,1.3v0.4l-0.6,0.6l-0.7,0.6l-0.3-0.6l-0.3,0.6l-0.6,0.3l-1.2-0.1
			l-0.4-0.3l-0.1-0.7h0.1l0.1-1.2l0.3-3l0.4-1.6l0.7-2.2l0.9-1.8l0.6-1.5l0.4-2.2v-1.5l0.3-0.9h0.3l0.3,0.6l0.4-0.7l0.4-0.3l0.1-0.3
			l0.7-0.1h1.2h0.7l0.1,0.3l1.2-0.4l0.9-0.3l0.1,0.1l0.4-0.4l1.6-1l1.9-1.3l0.7-0.6l0.9-0.4l1.6-0.6l0.4,1l0.3,0.9l-0.3,0.4l0.7,0.9
			l0.1,0.7l0.3,0.1h0.4l0.3,0.1h1l0.3-0.3l0.1-0.4l0.3-0.1h0.4l0.3,0.6l1.3,0.4h0.4l0.7,0.3h0.4l0.7-0.4l1-0.3l0.7,0.1l0.1,0.3h0.3
			l0.6,0.3l0.3,0.4l0.4,0.1h0.9l0.3,0.3l0.7,0.1l0.4,0.3l1,0.6l1.5,0.7l0.4,0.3l0.3,0.4l0.9,0.1l0.1,0.6l0.4,0.3l0.4,0.1h0.4
			l0.4-0.1l0.4-0.3h0.4l0.6-0.1l0.4-0.4l0.4-0.7l0.1-0.1l0.3,0.1l0.4,0.6l0.7,0.1l0.9-0.1l0.9-0.3l0.9-0.4l0.3-0.3l0.3-0.6l0.7,0.1
			h0.6l0.4-0.3l0.4-0.6l0.3-0.4l0.3-1l0.4-0.1l0.7-1.2l0.4-0.6l0.6,0.3h0.4l0.6-0.1l0.4-0.3l0.4-0.4l0.1-1.2l0.3-0.1l0.4,0.3h0.6
			l0.4-0.1l0.4-0.4l0.1-0.4l-0.1-1l0.1-0.4l-0.1-0.6l-0.4-0.4l-0.3-0.1h-0.1h-0.1v-0.6h0.1h0.1l0.3-0.1l0.3-0.1l0.6-0.4l0.4-0.4
			l0.1-0.1l0.3-0.1l0.1-0.1l0.6-0.6h0.1l0.3-0.1l0.1-0.1l0.1-0.1l0.3-0.3l0.7-1.2l0.1-0.1l0.1-0.1l0.1-0.1v-0.1v-0.1l0,0v-0.1
			l0.6-0.7l0,0h0.1l0.1-0.1l0.3-0.3l0.4-0.6l0.6-0.6l1-0.9l0.1-0.3l-0.1-0.9l0.4-0.4l0.1-0.3v-0.4l0.1-0.3v-0.3l-0.3-0.7l0.1-0.3
			v-0.1v-0.3l1.6-1.3l0.1-0.4v-0.4l1-1.5v-0.3l-0.1-0.3l0.4-0.6h0.4l0.4-0.3l1-1l0.3-0.4l0.3-0.6l0.9-0.4l0.7-0.6l0.9-0.9l0.9-1
			l0.7-1.3l0.7-1.6l0.1-0.7v-1.2l0.1-1.3l1.2-3.4l0.4-0.9l0.3-1l0.4-0.7"/>
		<path class="st1" d="M224.1,111.8l-0.1,0.4l-0.9,0.7v0.1l-0.1,0.4l-0.1,0.4l-0.3,0.6l-0.9,0.9l-0.1,0.4h-0.1l-0.1,0.1v0.1H221v0.1
			h-0.1l-0.1,0.3l-0.1,0.1l-0.1,0.1l-0.3,0.4l-0.1,0.1l-0.7,1.3l-0.4,0.9l-0.4,0.9l-0.6,2.5l0.3,0.3l-0.3,0.1l-0.1,1.2l0.3,0.1
			l-0.1,0.1h-0.3l-0.6,0.9h-0.9l-1.2-0.1l-0.4,0.6l-0.4,0.7l-0.7,1l-0.7,1l0.1,0.7l-0.3,0.6v0.6l-0.1,0.1l-0.6,0.1l-0.1,0.3l0.4,0.3
			l-0.1,0.3l-0.4-0.3h-0.4l-0.9,1.2l-0.9,0.3l-0.6,0.6l-0.4,0.7l0.1,0.4l-0.4,0.7l-0.7,0.4l-0.9,0.3l-1.2,0.3l-0.6,0.3l-0.3-0.1
			l-0.4,0.6l0.1,0.4l-1,0.7l-0.7,0.9l-0.9,0.4v0.3l-0.7,0.3h-0.4l-0.1,0.1l0.4,0.4l-0.1,0.1l-0.4-0.1l-0.1,0.4l-0.1,0.6l0.3,0.1
			l-0.1,0.4v0.3H199l-0.1-0.3l-0.3-0.1l-0.6,0.1l-0.7-0.7l-0.3,0.3h-0.3l-0.1,0.3l-0.6,0.1l-0.1,0.6l-0.4,0.6l-0.4,0.6l0.1,0.1
			l-0.1,0.1h-0.1l-0.4,1l-1.3,1l-0.3,0.6l0.3,0.7l0.3,0.4l0.3,0.1l-0.1,0.1l-0.6-0.3h-0.6l-0.6,0.4l-0.1,0.4v0.6v0.1h0.1l0.1,0.1
			l0.3,0.1l-0.1,0.3h-0.1l-0.3-0.1l-0.3-0.4l-0.3-0.1l-0.7,0.4v0.3H190l-0.4,0.1l-0.1-0.3l-1.3,0.9l-0.7,0.7l-1,0.6l-1.3,1l-1.2,1.2
			h-0.3v0.3h0.1v0.1l-0.4,0.1v0.3l-0.4-0.1l-0.3,0.4l-0.4,0.1l-0.1,0.3l-0.3-0.3l-0.3,0.1v0.1h-0.4l-0.3,0.3h-0.4l-0.6,0.7l-0.3,0.1
			l-0.4,0.1l-0.4-0.1l-0.7,0.1v0.3l-0.3,0.6H177l-0.1-0.1h0.3l-0.4-0.1l-0.4,0.3l-0.3,0.6l0.3,0.3l0.3,1.3v1.2l0.1,0.1l0.1,0.6
			l-0.4,0.7l-0.3,0.6l0.6,0.6v0.4l0.3,0.1l-0.1,0.3l0.1,1l0.1,0.1l-0.4,0.7h-0.1l-1,0.9H175l-0.4-0.4l0.1-0.1l-0.6-0.4l-0.1-0.3
			l-0.4-0.1l-0.4-0.4l0.3-0.3l-0.1-0.1h-0.6l-0.7-0.3l-0.6-0.3l-0.1-0.3v-0.4l-0.3-0.4v-0.6l0.6-0.3l-0.3,0.6l-0.3-0.1l-0.6,0.3
			l-0.3-0.3l0.1-0.7l0.3-0.6v-0.6l-0.4,0.1l-0.1,0.1l0.1,0.1v0.3v0.3l-0.6,0.1l-0.6,0.1h-0.3l-0.3,0.1l-0.3,0.7l-0.3,0.1h-0.1
			l0.4,0.3h0.4v0.6l-0.1,0.6l-0.1,0.6l-0.3-0.1l-0.1,0.6l0.1,0.4v0.4l-0.4,0.4l-0.4,0.3l0.1,0.3l-0.1,0.3l0.6,0.9l-0.4,0.4l-0.6,0.3
			l-0.6,0.9l-0.6,1.3l-0.9,0.6l-0.7,0.4l-0.3,0.1H163l1.2,3l0,0l0,0l0,0l0,0l8,17.2l-0.1,0.6l-3.4,2.4l5.2,12.4l0,0l1.5,4.4v0.1
			l3.1,26.1v0.1l-0.7,4.4v0.1l-2.4,3.9l-0.7,0.1l-1.9-1.9l-2.2,1.5h-0.3l-4.9-1.2l-0.3-0.4l1-5l-4.3-0.6l-3.3,0.7l-2.5,1.9l-1.8,4.6
			l0,0l11.1,4l1.5,0.6l3.1,0.6l10.1,0.9h0.1l6.7,2.8h0.1l0,0l0,0l7,5.5l0,0l3.6,3.3v0.1l1.9,3l0,0l1.5,3.1l1.9,1.9l2.4,0.6l0.7-4.4
			v-0.1l9.2-24.9l0.1-3.4l0.3-0.4l8-2.7l2.2-1l3.7-2.1h0.1l5.5-0.4h0.1l40.7,9.2l2.8,0.6l0.7-1.9l0.1-0.1l2.7-2.1l1.5-2.2l-2.7-1.5
			l-1.5-0.1h-0.1l-2.5-1.2l-0.1-0.6l2.4-3.3l0,0l3.1-3.4l0,0l3.9-2.8h0.1l5.8-2.1h0.1l4.4-0.4h0.1l5.3,1l1.2-1.3l0.3-4.4v-0.6
			l-4.1-1.3l-9.8-0.3l-0.3-0.1l-5.6-4.9v-0.6l4.6-5.8l1.2-3.9l-21.5-12.9c-0.1,2.2-0.4,5.2-0.4,5.6c0,0.6-0.1,1.8-0.9,2.4
			c-0.7,0.6-2.1,1.3-2.1,1.3l-1.5-0.3c0,0,1.6-1,1.9-2.1c0.3-1.2,0.6-3.1,0.4-5.2c-0.1-2.1-1.6-2.4-0.4-4.6c1.2-2.2,1.9-2.2,3.1-3.3
			c0.4-0.3,1-0.6,1.9-0.7l3.3-2.1l0.3-0.4c0.1-0.3,0.3-0.6,0.3-0.9c0.6-3.4,0.4-2.1,1.2-5c0.9-3,1.5-2.2,1.5-4.9
			c0-2.7,0.3-4.1,0.6-5.6c0.3-1.3,1-4.3,2.7-5.6c1.5-1.3,5.8-2.7,7.6-3.7c0.7-0.4,6.8-7.3,10.4-10.7c2.4-2.4,2.8-4,0.6-6.4l-4.3-2.1
			l-7.4-0.4l-12-6.1l-5.2-0.7l-3.1,1.3l-1,3.1l-7.9-3.9l-7.4-6.8l-1.2-4.7l-5.5-6.1l-5.5-2.2c0,0-2.2-0.7-4.1-0.9l2.7-2.7
			c0.4,0.4,1,0.9,1.5,1.5c1.3,1.6,3.3,1.8,4.6,2.5s3.1,2.1,4.4,3.3c1.3,1.3,6.2,6.4,6.8,7c0.6,0.6,7.7,5,9.8,5.9
			c2.1,0.9,6.1,0.6,6.1,0.6l10.4-15l1.3,0.7l-9.6,14.4c0,0,5,0.6,6.2,1.6c1.3,1,3.1,3.1,7.1,3.9c4,0.7,5.8,1.3,7.9,1.3
			c2.2,0,4.9,0.3,6.8,0.3c0.6,0,1.2,0,1.6-0.1l2.5,1.5l0.6-1l-1.5-0.9c0.4-0.3,0.9-0.6,1.2-1.2c0.7-1.6,1.5-3,1.9-4
			c0.3-1,1-4,0.1-5.5c-0.9-1.5-5.2-4.6-6.2-5.3s-16-8.7-16-8.7l-2.1,3l-1.3-0.7l2.2-3.1c0,0-4.9-2.8-7-4.3c-2.1-1.5-5.9-3.7-8.6-5.9
			c-2.8-2.2-6.7-4-10.2-5c-0.4-0.1-1-0.1-1.6-0.1l0,0c-0.1,0-0.4,0-0.6,0c-3.4,0.1-7.4,2.1-8.7,2.7c-1.6,0.7-8.6,6.1-9.9,8
			c-0.6,0.9-0.4,1.5-0.1,2.1l-3.7,3.7l0,0c-1.9,0.4-4.9,3.4-4.9,3.4l-3.3-0.6l-0.6,0.1"/>
		<g>
			<path class="st2" d="M290.2,206.1l-4.2,5.3l5,4.3l9.4,0.3h0.1l4.3,1.4l0.3,0.4v0.4l17.7-2.3c-0.1-2.7-0.1-6.2,1.2-7.6
				c1.7-1.9,4.3-4.9,9.1-4.7c4.7,0.1,8.5,0.9,9.6,0.6c0.7-0.3,2.3-0.6,3.3-1.6l-9.4-10.9l-5-5.9l-5.2-5l-7-5l-3.7-1.9l-9.8-3.7
				l-23.3-3.2c0,1.4,0,1.9-0.4,3c-0.6,1.3-0.7,2.2-1.6,4.3c-0.9,2.2-1,2.6-1.3,3.7c-0.3,1.2-0.7,2.4-2,3.7s-2,1.3-3.2,2.3
				c-1.2,1-1.6,1.3-2.6,1.7c-1,0.4-1.4,0.9-1.4,0.9s0,1-0.1,1.4l0.3,0.1l0,0l21.3,12.8l0.1,0.4L290.2,206.1L290.2,206.1z"/>
			<path d="M282.6,167C282.6,167,282.6,167,282.6,167C282.6,167,282.6,167,282.6,167C282.6,167,282.6,167,282.6,167
				C282.6,167,282.6,167,282.6,167C282.6,167,282.6,167,282.6,167C282.6,167,282.6,167,282.6,167C282.6,167,282.6,167,282.6,167
				C282.6,167,282.6,167,282.6,167C282.6,167,282.6,167,282.6,167C282.6,167.1,282.6,167.1,282.6,167c0,0.1,0,0.1,0,0.1c0,0,0,0,0,0
				c0,0,0,0,0,0c0,0,0,0,0,0c0,0,0,0,0,0c0,0,0,0,0,0c0,0,0,0,0,0c0,0,0,0,0,0c0,0,0,0,0,0c0,0,0,0,0,0c0,0,0,0,0,0c0,0,0,0,0,0
				c0,0,0,0,0,0c0,0,0,0,0,0c0,0,0,0,0,0c0,0,0,0,0,0c0,0,0,0,0,0c0,0,0,0,0,0c0,0,0,0,0,0c0,0,0,0,0,0c0,0,0,0,0,0c0,0,0,0,0,0
				c0,0,0,0,0,0c0,0,0,0,0,0c0,0,0,0,0,0c0,0,0,0,0,0c0,0,0,0,0,0c0,0,0,0,0,0c0,0,0,0,0,0c0,0,0,0,0,0c0,0,0,0,0,0c0,0,0,0,0,0
				c0,0,0,0,0,0c0,0,0,0,0,0c0,0,0,0,0,0c0,0,0,0,0,0c0,0,0,0,0,0c0,0,0,0,0,0c0,0,0,0,0,0c0,0,0,0,0,0c0,0,0,0,0,0c0,0,0,0,0,0
				c0,0,0,0,0,0c0,0,0,0,0,0c0,0,0,0,0,0c0,0,0,0,0,0c0,0,0,0,0,0c0,0,0,0,0,0c0,0,0,0,0,0c0,0,0,0,0,0c0,0,0,0,0,0c0,0,0,0,0,0
				c0,0,0,0,0,0c0,0,0,0,0,0c0,0,0,0,0,0c0,0,0,0,0,0c0,0,0,0,0,0c0,0,0,0,0,0c0,0,0,0,0,0c0,0,0,0,0,0c0,0,0,0,0,0v0c0,0,0,0,0,0
				c0,0,0,0,0,0c0,0,0,0,0,0c0,0,0,0,0,0c0,0,0,0,0,0v0c0,0,0,0,0,0c0,0,0,0,0,0c0,0,0,0,0,0c0,0,0,0,0,0c0,0,0,0,0,0c0,0,0,0,0,0
				c0,0,0,0,0,0c0,0,0,0,0,0c0,0,0,0,0,0c0,0,0,0,0,0c0,0,0,0,0,0c0,0,0,0,0,0c0,0,0,0,0,0c0,0,0,0,0,0c0,0,0,0,0,0c0,0,0,0,0,0
				c0,0,0,0,0,0c0,0,0,0,0,0c0,0,0,0,0,0c0,0,0,0,0,0c0,0,0,0,0,0c0,0,0,0,0,0c0,0,0,0,0,0c0,0,0,0,0,0c0,0,0,0,0,0c0,0,0,0,0,0
				c0,0,0,0,0,0c0,0,0,0,0,0c0,0,0,0,0,0c0,0,0,0,0,0c0,0,0,0,0,0c0,0,0,0,0,0c0,0,0,0,0,0c0,0,0,0,0,0c0,0,0,0,0,0c0,0,0,0,0,0
				c0,0,0,0,0,0c0,0,0,0,0,0c0,0,0,0,0,0c0,0,0,0,0,0c0,0,0,0,0,0c0,0,0,0,0,0c0,0,0,0.1,0,0.1c0,0,0,0,0,0c0,0,0,0,0,0l0,0
				c0,0.4,0,0.7-0.1,1.1c0,0.2,0.1,0.4,0.3,0.4c0,0,0,0,0.1,0c0.2,0,0.3-0.1,0.4-0.3c0.1-0.6,0.1-1.1,0.1-2L282.6,167L282.6,167z
				 M282.2,170.5c-0.1,0-0.3,0.1-0.3,0.2c-0.1,0.4-0.3,0.7-0.4,1.1c0,0,0,0.1,0,0.1c0,0,0,0,0,0c0,0,0,0,0,0c0,0.1-0.1,0.2-0.1,0.3
				c0,0,0,0,0,0c0,0,0,0,0,0c0,0.1-0.1,0.2-0.1,0.3c-0.1,0.2,0,0.4,0.2,0.5c0,0,0.1,0,0.1,0c0.2,0,0.3-0.1,0.3-0.2
				c0.1-0.3,0.2-0.5,0.2-0.7c0.1-0.4,0.2-0.7,0.4-1.1c0.1-0.2,0-0.4-0.2-0.5C282.3,170.5,282.2,170.5,282.2,170.5L282.2,170.5z
				 M280.9,174.1c-0.1,0-0.3,0.1-0.3,0.2c-0.2,0.5-0.3,0.8-0.5,1.2l0,0c0,0,0,0,0,0c0,0,0,0,0,0c0,0,0,0,0,0c0,0,0,0,0,0
				c0,0,0,0,0,0c0,0,0,0,0,0c0,0,0,0,0,0c0,0,0,0,0,0c0,0,0,0,0,0c-0.1,0.2-0.2,0.4-0.2,0.6c-0.1,0.2,0,0.4,0.2,0.5c0,0,0.1,0,0.1,0
				c0.1,0,0.3-0.1,0.3-0.2c0.2-0.4,0.4-1,0.7-1.8c0.1-0.2,0-0.4-0.2-0.5C281,174.1,280.9,174.1,280.9,174.1L280.9,174.1z
				 M279.6,177.7c-0.2,0-0.3,0.1-0.4,0.3c0,0,0,0.1,0,0.1c0,0,0,0,0,0l0,0c0,0,0,0,0,0c0,0,0,0,0,0c0,0,0,0,0,0c0,0,0,0,0,0
				c0,0,0,0,0,0c0,0,0,0,0,0c0,0,0,0,0,0c-0.1,0.5-0.3,1.1-0.6,1.7c-0.1,0.2,0,0.4,0.2,0.5c0,0,0.1,0,0.2,0c0.1,0,0.3-0.1,0.3-0.2
				c0.3-0.7,0.5-1.3,0.6-1.9l0-0.1C280,177.9,279.9,177.7,279.6,177.7C279.7,177.7,279.7,177.7,279.6,177.7L279.6,177.7z
				 M277.9,181.3c-0.1,0-0.2,0-0.3,0.1c-0.1,0.1-0.2,0.2-0.3,0.3c0,0,0,0,0,0c0,0,0,0,0,0c0,0,0,0,0,0c0,0,0,0,0,0c0,0,0,0,0,0
				c0,0,0,0,0,0c0,0,0,0,0,0c0,0,0,0,0,0c0,0,0,0,0,0c0,0,0,0,0,0c0,0,0,0,0,0c0,0,0,0,0,0c0,0,0,0,0,0c0,0,0,0,0,0c0,0,0,0,0,0
				c0,0,0,0,0,0c0,0,0,0,0,0c0,0,0,0,0,0c0,0,0,0,0,0c0,0,0,0,0,0c0,0,0,0,0,0c0,0,0,0,0,0c0,0,0,0,0,0c0,0,0,0,0,0c0,0,0,0,0,0
				c0,0,0,0,0,0c0,0,0,0,0,0c0,0,0,0,0,0c0,0,0,0,0,0c0,0,0,0,0,0c0,0,0,0,0,0c0,0,0,0,0,0c0,0,0,0,0,0c0,0,0,0,0,0c0,0,0,0,0,0
				c0,0,0,0,0,0c0,0,0,0,0,0c0,0,0,0,0,0c0,0,0,0,0,0c0,0,0,0,0,0c0,0,0,0,0,0c0,0,0,0,0,0c0,0,0,0,0,0c0,0,0,0,0,0c0,0,0,0,0,0l0,0
				c0,0,0,0,0,0c0,0,0,0,0,0c0,0,0,0,0,0c0,0,0,0,0,0c0,0,0,0,0,0c0,0,0,0,0,0c0,0,0,0,0,0c0,0,0,0,0,0c0,0,0,0,0,0c0,0,0,0,0,0
				c0,0,0,0,0,0c0,0,0,0,0,0c0,0,0,0,0,0c0,0,0,0,0,0c0,0,0,0,0,0c0,0,0,0,0,0c0,0,0,0,0,0c0,0,0,0,0,0c0,0,0,0,0,0c0,0,0,0,0,0
				c0,0,0,0,0,0c0,0,0,0,0,0c0,0,0,0,0,0c0,0,0,0,0,0c0,0,0,0,0,0c0,0,0,0,0,0c0,0,0,0,0,0c0,0,0,0,0,0c0,0,0,0,0,0c0,0,0,0,0,0
				c0,0,0,0,0,0c0,0,0,0,0,0c0,0,0,0,0,0c0,0,0,0,0,0c0,0,0,0,0,0c0,0,0,0,0,0c0,0,0,0,0,0c0,0,0,0,0,0c0,0,0,0,0,0c0,0,0,0,0,0
				c0,0,0,0,0,0c0,0,0,0,0,0c0,0,0,0,0,0c0,0,0,0,0,0c0,0,0,0,0,0c0,0,0,0,0,0c0,0,0,0,0,0c0,0,0,0,0,0c0,0,0,0,0,0c0,0,0,0,0,0
				c0,0,0,0,0,0c0,0,0,0,0,0c0,0,0,0,0,0c0,0,0,0,0,0c0,0,0,0,0,0c0,0,0,0,0,0c0,0,0,0,0,0c0,0,0,0,0,0c0,0,0,0,0,0c0,0,0,0,0,0
				c0,0,0,0,0,0c0,0,0,0,0,0c0,0,0,0,0,0c0,0,0,0,0,0c0,0,0,0,0,0c0,0,0,0,0,0c0,0,0,0,0,0c0,0,0,0,0,0c0,0,0,0,0,0c0,0,0,0,0,0
				c0,0,0,0,0,0c0,0,0,0,0,0c0,0,0,0,0,0c0,0,0,0,0,0c0,0,0,0,0,0c0,0,0,0,0,0c0,0,0,0,0,0c0,0,0,0,0,0c0,0,0,0,0,0c0,0,0,0,0,0
				c0,0,0,0,0,0c0,0,0,0,0,0c0,0,0,0,0,0c0,0,0,0,0,0c0,0,0,0,0,0c0,0,0,0,0,0c0,0,0,0,0,0c0,0,0,0,0,0c0,0,0,0,0,0c0,0,0,0,0,0
				c0,0,0,0,0,0c0,0,0,0,0,0c0,0,0,0,0,0c0,0,0,0,0,0c0,0,0,0,0,0c0,0,0,0,0,0l0,0c0,0,0,0,0,0c0,0,0,0,0,0c0,0,0,0,0,0c0,0,0,0,0,0
				c0,0,0,0,0,0c0,0,0,0,0,0c0,0,0,0,0,0c0,0,0,0,0,0c0,0,0,0,0,0c0,0,0,0,0,0c0,0,0,0,0,0c0,0,0,0,0,0c-0.3,0.2-0.5,0.4-0.7,0.6
				c-0.2,0.1-0.2,0.3-0.1,0.5c0.1,0.1,0.2,0.2,0.3,0.2c0.1,0,0.1,0,0.2-0.1c0.4-0.3,0.8-0.6,1.1-1c0.2-0.2,0.3-0.3,0.4-0.5
				c0.1-0.2,0.1-0.4,0-0.5C278.1,181.3,278,181.3,277.9,181.3L277.9,181.3z M274.8,183.6c-0.1,0-0.1,0-0.2,0.1c0,0-0.1,0.1-0.1,0.1
				c0,0,0,0,0,0c0,0,0,0,0,0c0,0,0,0,0,0c0,0,0,0,0,0c0,0,0,0,0,0c0,0,0,0,0,0c0,0,0,0,0,0c0,0,0,0,0,0c0,0,0,0,0,0c0,0,0,0,0,0
				c0,0,0,0,0,0c0,0,0,0,0,0c0,0,0,0,0,0c0,0,0,0,0,0c0,0,0,0,0,0c0,0,0,0,0,0c0,0,0,0,0,0c0,0,0,0,0,0c0,0,0,0,0,0c0,0,0,0,0,0
				c0,0,0,0,0,0c0,0,0,0,0,0c0,0,0,0,0,0c0,0,0,0,0,0c0,0,0,0,0,0c0,0,0,0,0,0c0,0,0,0,0,0c0,0,0,0,0,0c0,0,0,0,0,0c0,0,0,0,0,0
				c0,0,0,0,0,0c0,0,0,0,0,0c0,0,0,0,0,0c0,0,0,0,0,0c0,0,0,0,0,0c0,0,0,0,0,0c0,0,0,0,0,0c0,0,0,0,0,0c0,0,0,0,0,0c0,0,0,0,0,0
				c0,0,0,0,0,0c0,0,0,0,0,0c0,0,0,0,0,0c0,0,0,0,0,0c0,0,0,0,0,0c0,0,0,0,0,0c0,0,0,0,0,0c0,0,0,0,0,0c0,0,0,0,0,0c0,0,0,0,0,0
				c0,0,0,0,0,0c0,0,0,0,0,0c0,0,0,0,0,0c0,0,0,0,0,0c0,0,0,0,0,0c0,0,0,0,0,0c0,0,0,0,0,0c-0.1,0-0.1,0.1-0.2,0.2c0,0,0,0,0,0
				c0,0,0,0,0,0c0,0,0,0,0,0c0,0,0,0,0,0c0,0,0,0,0,0c0,0,0,0,0,0c0,0,0,0,0,0c0,0,0,0,0,0c0,0,0,0,0,0c0,0,0,0,0,0c0,0,0,0,0,0l0,0
				c0,0,0,0,0,0c0,0,0,0,0,0c0,0,0,0,0,0c0,0,0,0,0,0c0,0,0,0,0,0c0,0,0,0,0,0c0,0,0,0,0,0c0,0,0,0,0,0c0,0,0,0,0,0
				c-0.3,0.2-0.5,0.5-0.7,0.6c0,0,0,0,0,0c0,0,0,0,0,0c0,0,0,0,0,0c0,0,0,0,0,0c0,0,0,0,0,0c0,0,0,0,0,0c0,0,0,0,0,0c0,0,0,0,0,0
				c0,0,0,0,0,0c0,0,0,0,0,0c0,0,0,0,0,0c0,0,0,0,0,0c-0.1,0.1-0.1,0.1-0.2,0.2c-0.2,0.1-0.2,0.3-0.1,0.5c0.1,0.1,0.2,0.1,0.3,0.1
				c0.1,0,0.2,0,0.2-0.1c0.3-0.2,0.6-0.5,1-0.8c0.2-0.1,0.3-0.3,0.5-0.4c0.2-0.1,0.2-0.3,0.1-0.5C275,183.7,274.9,183.6,274.8,183.6
				L274.8,183.6z M271.6,185.8c0,0-0.1,0-0.1,0c-0.2,0.1-0.3,0.2-0.5,0.2c0,0,0,0,0,0c0,0,0,0,0,0c0,0,0,0,0,0c0,0,0,0,0,0
				c0,0,0,0,0,0c0,0,0,0,0,0c0,0,0,0,0,0c0,0,0,0,0,0l0,0c0,0,0,0,0,0c0,0,0,0,0,0c0,0,0,0,0,0c0,0,0,0,0,0c0,0,0,0,0,0c0,0,0,0,0,0
				c0,0,0,0,0,0c0,0,0,0,0,0c0,0,0,0,0,0c0,0,0,0,0,0c0,0,0,0,0,0c0,0,0,0,0,0c0,0,0,0,0,0c0,0,0,0,0,0c0,0,0,0,0,0c0,0,0,0,0,0
				c0,0,0,0,0,0c0,0,0,0,0,0c0,0,0,0,0,0c0,0,0,0,0,0c0,0,0,0,0,0c0,0,0,0,0,0c0,0,0,0,0,0c0,0,0,0,0,0c0,0,0,0,0,0c0,0,0,0,0,0h0
				c0,0,0,0,0,0c0,0,0,0,0,0c0,0,0,0,0,0c0,0,0,0,0,0c0,0,0,0,0,0l0,0c-0.5,0.3-0.8,0.5-0.8,0.6l0,0h0l0,0c0,0,0,0,0,0c0,0,0,0,0,0
				c0,0,0,0,0,0c0,0,0,0,0,0c0,0,0,0,0,0c0,0,0,0,0,0c0,0,0,0,0,0c0,0,0,0,0,0c0,0,0,0,0,0c0,0,0,0,0,0c0,0,0,0,0,0c0,0,0,0,0,0
				c0,0,0,0,0,0c0,0,0,0,0,0c0,0,0,0,0,0c0,0,0,0,0,0c0,0,0,0,0,0c0,0,0,0,0,0c0,0,0,0,0,0c0,0,0,0,0,0c0,0,0,0,0,0c0,0,0,0,0,0
				c0,0,0,0,0,0c0,0,0,0,0,0c0,0,0,0,0,0c0,0,0,0,0,0c0,0,0,0,0,0c0,0,0,0,0,0c0,0,0,0,0,0c0,0,0,0,0,0c0,0,0,0,0,0c0,0,0,0,0,0
				c0,0,0,0,0,0c0,0,0,0,0,0c0,0,0,0,0,0c0,0,0,0,0,0c0,0,0,0,0,0c0,0,0,0,0,0l0,0c0,0,0,0,0,0c0,0,0,0,0,0c0,0,0,0,0,0s0,0,0,0
				c0,0,0,0,0,0c0,0,0,0,0,0c0,0,0,0,0,0c0,0,0,0,0,0c0,0,0,0,0,0c0,0,0,0,0,0c0,0,0,0.1,0,0.3c0,0.2,0.2,0.4,0.4,0.4c0,0,0,0,0,0
				c0.2,0,0.3-0.1,0.4-0.3c0.2-0.1,0.5-0.3,1-0.5c0.2-0.1,0.3-0.3,0.2-0.5C271.8,185.9,271.7,185.8,271.6,185.8L271.6,185.8z
				 M270.8,187.8c-0.1,0-0.2,0.1-0.3,0.2c-0.1,0.2,0,0.4,0.1,0.5l0.4,0.2c0.5,0.3,1.3,0.8,1.3,0.8c0.1,0,0.1,0.1,0.2,0.1
				c0.1,0,0.2-0.1,0.3-0.2c0.1-0.2,0-0.4-0.1-0.5l-1.6-1C270.9,187.8,270.8,187.8,270.8,187.8L270.8,187.8z M274.1,189.8
				c-0.1,0-0.2,0.1-0.3,0.2c-0.1,0.2,0,0.4,0.1,0.5l0.3,0.2c0,0,0,0,0,0l0,0c0,0,0,0,0,0l0,0c0.5,0.3,1.4,0.8,1.4,0.8
				c0.1,0,0.1,0.1,0.2,0.1c0.1,0,0.2-0.1,0.3-0.2c0.1-0.2,0-0.4-0.1-0.5l-1.6-1C274.2,189.8,274.1,189.8,274.1,189.8L274.1,189.8z
				 M277.4,191.8c-0.1,0-0.2,0.1-0.3,0.2c-0.1,0.2,0,0.4,0.1,0.5l0.2,0.1c0.4,0.3,1.5,0.9,1.5,0.9c0.1,0,0.1,0.1,0.2,0.1
				c0.1,0,0.2-0.1,0.3-0.2c0.1-0.2,0-0.4-0.1-0.5l-1.6-1C277.5,191.8,277.4,191.8,277.4,191.8L277.4,191.8z M280.6,193.8
				c-0.1,0-0.2,0.1-0.3,0.2c-0.1,0.2,0,0.4,0.1,0.5l0,0l0,0l0,0c0,0,0,0,0,0l0,0c0,0,0,0,0,0l0,0c0,0,0,0,0,0l0,0c0,0,0,0,0,0l0,0
				c0,0,0,0,0,0l0,0c0,0,0,0,0,0l0,0c0,0,0,0,0,0l0,0c0,0,0,0,0,0l0,0c0,0,0,0,0,0l0,0c0.3,0.2,1.6,0.9,1.6,0.9
				c0.1,0,0.1,0.1,0.2,0.1c0.1,0,0.2-0.1,0.3-0.2c0.1-0.2,0-0.4-0.1-0.5l-1.6-1C280.8,193.8,280.7,193.8,280.6,193.8L280.6,193.8z
				 M283.9,195.7c-0.1,0-0.2,0.1-0.3,0.2c-0.1,0.2,0,0.4,0.1,0.5l1.6,1c0.1,0,0.1,0.1,0.2,0.1c0.1,0,0.2-0.1,0.3-0.2
				c0.1-0.2,0-0.4-0.1-0.5l-1.6-1C284.1,195.8,284,195.7,283.9,195.7L283.9,195.7z M287.2,197.7c-0.1,0-0.2,0.1-0.3,0.2
				c-0.1,0.2,0,0.4,0.1,0.5l1.6,1c0.1,0,0.1,0.1,0.2,0.1c0.1,0,0.2-0.1,0.3-0.2c0.1-0.2,0-0.4-0.1-0.5l-1.6-1
				C287.4,197.7,287.3,197.7,287.2,197.7L287.2,197.7z M290.5,199.7c-0.1,0-0.2,0.1-0.3,0.2c-0.1,0.2,0,0.4,0.1,0.5l1.1,0.7
				c0,0,0,0,0,0l0,0c0,0,0,0,0,0l0,0c0,0,0,0,0,0l0,0c0,0,0,0,0,0l0,0c0,0,0,0,0,0l0,0c0,0,0,0,0,0l0,0c0,0,0,0,0,0l0,0c0,0,0,0,0,0
				l0,0c0,0,0,0,0,0l0,0c0,0,0,0,0,0l0,0c0,0,0,0,0,0l0,0c0,0,0,0,0,0l0.1,0.4l0,0l0,0l0,0c0,0,0,0,0,0l0,0c0,0,0,0,0,0l0,0
				c0,0,0,0,0,0l0,0c0,0,0,0,0,0l0,0c0,0,0,0,0,0l0,0c0,0,0,0,0,0l0,0c0,0,0,0,0,0l0,0c0,0,0,0,0,0v0c0,0,0,0,0,0l0,0c0,0,0,0,0,0
				l0,0c0,0,0,0,0,0l0,0l0,0l0,0c0,0,0,0,0,0l0,0c0,0,0,0,0,0l0,0c0,0,0,0,0,0l0,0.1c-0.1,0.2,0,0.4,0.2,0.5c0,0,0.1,0,0.1,0
				c0.2,0,0.3-0.1,0.3-0.3l0-0.1c0-0.1,0-0.3,0-0.4l-0.1-0.4c-0.1-0.2-0.2-0.3-0.3-0.4l-1.1-0.7
				C290.7,199.7,290.6,199.7,290.5,199.7L290.5,199.7z M291.4,203.2c-0.2,0-0.3,0.1-0.3,0.3l-0.6,1.8c-0.1,0.2,0,0.4,0.2,0.5
				c0,0,0.1,0,0.1,0c0.2,0,0.3-0.1,0.3-0.3l0.6-1.8c0.1-0.2,0-0.4-0.2-0.5C291.4,203.2,291.4,203.2,291.4,203.2L291.4,203.2z
				 M289.8,206.8c-0.1,0-0.2,0-0.3,0.1c0,0-0.2,0.3-0.5,0.6l0,0c0,0,0,0,0,0l0,0c0,0,0,0,0,0l-0.7,0.9c-0.1,0.2-0.1,0.4,0.1,0.5
				c0.1,0.1,0.1,0.1,0.2,0.1c0.1,0,0.2,0,0.3-0.1l1.2-1.5c0.1-0.2,0.1-0.4-0.1-0.5C290,206.8,289.9,206.8,289.8,206.8L289.8,206.8z
				 M287.4,209.8c-0.1,0-0.2,0-0.3,0.1c0,0-1.1,1.4-1.1,1.4l0,0c0,0,0,0,0,0l0,0c0,0,0,0,0,0l0,0c0,0,0,0,0,0v0l0,0c0,0,0,0,0,0l0,0
				c0,0,0,0,0,0l0,0c0,0,0,0,0,0l0.1,0.1c0,0,0,0,0.1,0l0.4,0.4l1.1-1.4c0.1-0.2,0.1-0.4-0.1-0.5
				C287.6,209.9,287.5,209.8,287.4,209.8L287.4,209.8z M287.8,212.1c-0.1,0-0.2,0-0.3,0.1c-0.1,0.2-0.1,0.4,0,0.5l0.5,0.4
				c0.4,0.4,1,0.9,1,0.9c0.1,0.1,0.2,0.1,0.2,0.1c0.1,0,0.2,0,0.3-0.1c0.1-0.2,0.1-0.4,0-0.5l-1.5-1.3
				C287.9,212.1,287.9,212.1,287.8,212.1L287.8,212.1z M290.7,214.6c-0.1,0-0.2,0-0.3,0.1c-0.1,0.2-0.1,0.4,0,0.5l0.4,0.3
				c0,0,0,0,0,0l0,0c0,0,0,0,0,0l0,0c0,0,0,0,0,0l0,0c0,0,0,0,0,0l0,0c0,0,0,0,0,0l0,0c0,0,0,0,0,0l0,0c0,0,0,0,0,0l0,0c0,0,0,0,0,0
				l0,0c0,0,0,0,0,0l0,0c0,0,0,0,0,0l0,0c0,0,0,0,0,0l0,0c0,0,0,0,0,0l0,0c0,0,0,0,0,0l0,0c0,0,0,0,0,0l0,0c0,0,0,0,0,0l0,0
				c0,0,0,0,0,0l0,0c0,0,0,0,0,0l0,0c0,0,0,0,0,0l0,0c0,0,0,0,0,0l0,0c0,0,0,0,0,0l0,0c0,0,0,0,0,0l0,0c0,0,0,0,0,0l0,0c0,0,0,0,0,0
				l0,0c0,0,0,0,0,0l0,0c0,0,0,0,0,0l0,0c0,0,0,0,0,0l0,0c0,0,0,0,0,0l0,0c0,0,0,0,0,0l0,0c0,0,0,0,0,0l0,0c0,0,0,0,0,0l0,0
				c0,0,0,0,0,0l0,0c0,0,0,0,0,0l0,0c0,0,0,0,0,0l0,0l1.1,0c0,0,0,0,0,0c0.2,0,0.4-0.2,0.4-0.4c0-0.2-0.2-0.4-0.4-0.4l-0.9,0
				l-0.4-0.3C290.9,214.6,290.8,214.6,290.7,214.6L290.7,214.6z M294.1,215.1c-0.2,0-0.4,0.2-0.4,0.4c0,0.2,0.2,0.4,0.4,0.4l1.9,0.1
				c0,0,0,0,0,0c0.2,0,0.4-0.2,0.4-0.4c0-0.2-0.2-0.4-0.4-0.4L294.1,215.1C294.1,215.1,294.1,215.1,294.1,215.1L294.1,215.1z
				 M298,215.2c-0.2,0-0.4,0.2-0.4,0.4c0,0.2,0.2,0.4,0.4,0.4l1.9,0.1c0,0,0,0,0,0c0.2,0,0.4-0.2,0.4-0.4c0-0.2-0.2-0.4-0.4-0.4
				L298,215.2C298,215.2,298,215.2,298,215.2L298,215.2z M301.9,215.7c-0.2,0-0.3,0.1-0.3,0.2c-0.1,0.2,0,0.4,0.2,0.5l1.4,0.5
				c0,0,0,0,0,0l0,0c0.2,0.1,0.4,0.1,0.4,0.1c0,0,0.1,0,0.1,0c0.2,0,0.3-0.1,0.3-0.2c0.1-0.2,0-0.4-0.2-0.5l-1.8-0.6
				C301.9,215.7,301.9,215.7,301.9,215.7L301.9,215.7z M306.6,217.4C306.6,217.4,306.6,217.4,306.6,217.4l-1.6,0.2l0,0.2l0.1,0.1
				v0.4l0,0l0,0l0,0l0,0l0,0l0,0l0,0l0.7-0.1l0,0c0.4-0.1,0.8-0.1,0.8-0.1c0.2,0,0.3-0.2,0.3-0.4
				C306.9,217.5,306.8,217.4,306.6,217.4L306.6,217.4z M305.1,217.6l0,0.2l0,0L305.1,217.6L305.1,217.6z M310.4,216.9
				C310.4,216.9,310.4,216.9,310.4,216.9l-2,0.3c-0.2,0-0.3,0.2-0.3,0.4c0,0.2,0.2,0.3,0.4,0.3c0,0,0,0,0,0l1.6-0.2c0,0,0,0,0,0l0,0
				c0,0,0,0,0,0h0c0.2,0,0.3,0,0.3,0c0.2,0,0.3-0.2,0.3-0.4C310.8,217,310.6,216.9,310.4,216.9L310.4,216.9z M314.2,216.4
				C314.2,216.4,314.2,216.4,314.2,216.4l-2,0.3c-0.2,0-0.3,0.2-0.3,0.4c0,0.2,0.2,0.3,0.4,0.3c0,0,0,0,0,0c0,0,1-0.1,1.6-0.2l0,0
				c0,0,0,0,0,0l0.3,0c0.2,0,0.3-0.2,0.3-0.4C314.6,216.6,314.4,216.4,314.2,216.4L314.2,216.4z M318,215.9
				C318,215.9,318,215.9,318,215.9l-2,0.3c-0.2,0-0.3,0.2-0.3,0.4c0,0.2,0.2,0.3,0.4,0.3c0,0,0,0,0,0c0,0,0.5-0.1,1-0.1l0.9-0.1
				c0.2,0,0.3-0.2,0.3-0.4C318.4,216.1,318.2,215.9,318,215.9L318,215.9z M321.9,215.4C321.8,215.4,321.8,215.4,321.9,215.4l-2,0.3
				c-0.2,0-0.3,0.2-0.3,0.4c0,0.2,0.2,0.3,0.4,0.3c0,0,0,0,0,0c0,0,0.2,0,0.4-0.1l0,0c0,0,0,0,0,0l0,0c0,0,0,0,0,0l1.5-0.2
				c0.2,0,0.3-0.2,0.3-0.4C322.2,215.6,322,215.4,321.9,215.4L321.9,215.4z M322.4,212.8c-0.2,0-0.4,0.2-0.4,0.4c0,0.6,0,1.2,0,2
				c0,0.2,0.2,0.4,0.4,0.4c0,0,0,0,0,0c0.2,0,0.4-0.2,0.4-0.4c0-0.2,0-0.3,0-0.5c0,0,0,0,0,0c0,0,0,0,0,0c0,0,0,0,0,0c0,0,0,0,0,0
				c0,0,0,0,0,0c0,0,0,0,0,0c0,0,0,0,0,0c0,0,0,0,0,0c0,0,0,0,0,0c0,0,0,0,0,0c0,0,0,0,0,0c0,0,0,0,0,0c0,0,0,0,0,0c0,0,0,0,0,0
				c0,0,0,0,0,0c0,0,0,0,0,0c0,0,0,0,0,0c0,0,0,0,0,0c0,0,0,0,0,0c0,0,0,0,0,0c0,0,0,0,0,0c0,0,0,0,0,0c0,0,0,0,0,0c0,0,0,0,0,0
				c0-0.3,0-0.6,0-0.9c0,0,0,0,0,0c0,0,0,0,0,0c0,0,0,0,0,0c0,0,0,0,0,0c0,0,0,0,0,0c0,0,0,0,0,0c0,0,0,0,0,0c0,0,0,0,0,0
				c0,0,0,0,0,0c0,0,0,0,0,0c0,0,0,0,0,0c0,0,0,0,0,0c0,0,0,0,0,0c0,0,0,0,0,0c0,0,0,0,0,0c0,0,0,0,0,0c0,0,0,0,0,0c0,0,0,0,0,0
				c0,0,0,0,0,0c0,0,0,0,0,0c0,0,0,0,0,0c0,0,0,0,0,0c0,0,0,0,0,0c0,0,0,0,0,0c0,0,0,0,0,0c0,0,0,0,0,0c0,0,0,0,0,0c0,0,0,0,0,0
				c0,0,0,0,0,0c0,0,0,0,0,0c0,0,0,0,0,0c0,0,0,0,0,0c0,0,0,0,0,0c0,0,0,0,0,0c0,0,0,0,0,0c0,0,0,0,0,0c0,0,0,0,0,0v0c0,0,0,0,0,0
				c0,0,0,0,0,0c0,0,0,0,0,0v0c0,0,0-0.1,0-0.1C322.8,212.9,322.6,212.8,322.4,212.8C322.4,212.8,322.4,212.8,322.4,212.8
				L322.4,212.8z M323.1,208.9c-0.1,0-0.3,0.1-0.3,0.2c-0.2,0.6-0.4,1.2-0.5,2c0,0.2,0.1,0.4,0.3,0.4c0,0,0,0,0.1,0
				c0.2,0,0.3-0.1,0.4-0.3c0-0.1,0-0.1,0-0.2c0,0,0,0,0,0c0,0,0,0,0,0c0,0,0,0,0,0c0,0,0,0,0,0c0,0,0,0,0,0c0,0,0,0,0,0c0,0,0,0,0,0
				c0,0,0,0,0,0c0,0,0,0,0,0c0,0,0,0,0,0c0,0,0,0,0,0c0,0,0,0,0,0c0,0,0,0,0,0c0,0,0,0,0,0c0,0,0,0,0,0c0,0,0,0,0,0c0,0,0,0,0,0
				c0,0,0,0,0,0c0,0,0,0,0,0c0,0,0,0,0,0c0,0,0,0,0,0c0,0,0,0,0,0c0,0,0,0,0,0c0,0,0,0,0,0c0,0,0,0,0,0c0,0,0,0,0,0c0,0,0,0,0,0
				c0,0,0,0,0,0c0,0,0,0,0,0c0,0,0,0,0,0c0,0,0,0,0,0c0,0,0,0,0,0c0,0,0,0,0,0c0,0,0,0,0,0c0,0,0,0,0,0c0,0,0,0,0,0
				c0.1-0.5,0.2-1,0.4-1.4v0c0,0,0,0,0,0l0,0c0,0,0,0,0,0c0,0,0,0,0,0c0,0,0,0,0,0c0,0,0,0,0,0c0,0,0,0,0,0c0,0,0,0,0,0c0,0,0,0,0,0
				c0,0,0,0,0,0c0,0,0,0,0,0c0,0,0,0,0,0c0,0,0,0,0,0c0,0,0,0,0,0c0,0,0,0,0,0c0,0,0,0,0,0c0,0,0,0,0,0c0,0,0,0,0,0c0,0,0,0,0,0
				c0,0,0,0,0,0c0,0,0,0,0,0c0,0,0,0,0,0c0,0,0,0,0,0c0,0,0,0,0,0c0,0,0,0,0,0c0,0,0,0,0,0c0,0,0,0,0,0c0,0,0,0,0,0c0,0,0,0,0,0
				c0,0,0,0,0,0c0.1-0.2,0-0.4-0.2-0.5C323.2,208.9,323.1,208.9,323.1,208.9L323.1,208.9z M325.6,205.8c-0.1,0-0.2,0-0.2,0.1
				c-0.5,0.5-1,1-1.4,1.4c-0.1,0.1-0.1,0.4,0,0.5c0.1,0.1,0.2,0.1,0.2,0.1c0.1,0,0.2,0,0.3-0.1c0.1-0.1,0.2-0.3,0.4-0.4c0,0,0,0,0,0
				c0,0,0,0,0,0c0,0,0,0,0,0c0,0,0,0,0,0c0,0,0,0,0,0c0,0,0,0,0,0c0,0,0,0,0,0c0,0,0,0,0,0c0,0,0,0,0,0c0,0,0,0,0,0c0,0,0,0,0,0
				c0,0,0,0,0,0c0,0,0,0,0,0c0,0,0,0,0,0c0,0,0,0,0,0c0,0,0,0,0,0c0,0,0,0,0,0c0,0,0,0,0,0c0,0,0,0,0,0c0,0,0,0,0,0c0,0,0,0,0,0
				c0,0,0,0,0,0c0.3-0.3,0.6-0.6,0.9-0.9c0.1-0.1,0.2-0.4,0-0.5C325.8,205.9,325.7,205.8,325.6,205.8L325.6,205.8z M329,203.7
				c0,0-0.1,0-0.1,0c-0.6,0.3-1.2,0.6-1.8,1c-0.2,0.1-0.2,0.3-0.1,0.5c0.1,0.1,0.2,0.2,0.3,0.2c0.1,0,0.1,0,0.2-0.1
				c0.5-0.3,1-0.6,1.6-0.9c0,0,0,0,0,0c0,0,0,0,0,0c0,0,0,0,0,0c0,0,0,0,0,0c0,0,0,0,0,0c0,0,0,0,0,0c0,0,0,0,0,0c0,0,0,0,0,0
				c0,0,0,0,0,0c0,0,0,0,0,0c0,0,0,0,0,0c0,0,0,0,0,0c0,0,0,0,0,0c0,0,0,0,0,0c0,0,0,0,0,0c0,0,0,0,0,0c0,0,0,0,0,0c0,0,0,0,0,0
				c0,0,0,0,0,0c0,0,0,0,0,0c0,0,0,0,0,0c0,0,0,0,0,0c0,0,0,0,0,0l0,0c0,0,0,0,0,0c0.2-0.1,0.3-0.3,0.2-0.5
				C329.2,203.7,329.1,203.7,329,203.7L329,203.7z M332.7,202.9c-0.7,0-1.3,0.1-1.9,0.2c-0.2,0-0.3,0.2-0.3,0.4
				c0,0.2,0.2,0.3,0.4,0.3c0,0,0,0,0.1,0c0.4-0.1,0.9-0.1,1.3-0.2h0c0,0,0,0,0.1,0c0,0,0,0,0,0c0,0,0,0,0,0c0,0,0,0,0,0c0,0,0,0,0,0
				c0,0,0,0,0,0c0,0,0,0,0,0c0,0,0,0,0,0c0,0,0,0,0,0c0,0,0,0,0,0c0,0,0,0,0,0c0,0,0,0,0,0c0,0,0,0,0,0c0,0,0,0,0,0c0,0,0,0,0,0
				c0,0,0,0,0,0c0,0,0,0,0,0c0,0,0,0,0,0c0,0,0,0,0,0c0,0,0,0,0,0c0,0,0,0,0,0c0,0,0,0,0,0c0,0,0,0,0,0c0,0,0,0,0,0c0,0,0,0,0,0
				c0,0,0,0,0,0c0,0,0,0,0,0c0,0,0,0,0,0c0,0,0,0,0,0c0,0,0,0,0,0c0,0,0,0,0,0c0,0,0,0,0,0c0,0,0,0,0,0c0,0,0,0,0,0c0,0,0,0,0,0
				c0,0,0,0,0,0c0,0,0,0,0,0c0,0,0,0,0,0c0,0,0,0,0,0c0,0,0,0,0,0c0,0,0,0,0,0c0,0,0,0,0,0c0,0,0,0,0,0c0,0,0,0,0,0c0,0,0,0,0,0
				c0,0,0,0,0,0c0,0,0,0,0,0c0,0,0,0,0,0c0,0,0,0,0,0c0,0,0,0,0,0c0,0,0,0,0,0c0,0,0,0,0,0c0,0,0,0,0,0c0,0,0,0,0,0c0,0,0,0,0,0
				c0,0,0,0,0,0c0,0,0,0,0,0c0,0,0,0,0,0c0,0,0,0,0,0c0,0,0,0,0,0c0,0,0,0,0,0c0,0,0,0,0,0c0,0,0,0,0,0c0,0,0,0,0,0c0,0,0,0,0,0
				c0,0,0,0,0,0c0,0,0,0,0,0c0,0,0,0,0,0c0,0,0,0,0,0c0,0,0,0,0,0c0,0,0,0,0,0c0,0,0,0,0,0c0,0,0,0,0,0c0,0,0,0,0,0c0,0,0,0,0,0
				c0,0,0,0,0,0c0,0,0,0,0,0c0,0,0,0,0,0c0,0,0,0,0,0c0,0,0,0,0,0c0,0,0,0,0,0c0,0,0,0,0,0c0,0,0,0,0,0c0,0,0,0,0,0c0,0,0,0,0,0
				c0,0,0,0,0,0c0,0,0,0,0,0c0,0,0,0,0,0c0,0,0,0,0,0l0,0c0,0,0,0,0,0c0,0,0,0,0,0c0,0,0,0,0,0c0,0,0,0,0,0c0,0,0,0,0,0c0,0,0,0,0,0
				c0,0,0,0,0,0c0,0,0,0,0,0c0,0,0,0,0,0c0,0,0,0,0,0c0,0,0,0,0.1,0c0,0,0,0,0,0c0.2,0,0.4-0.2,0.4-0.4c0-0.2-0.2-0.4-0.4-0.4
				L332.7,202.9L332.7,202.9z M334.8,203c-0.2,0-0.4,0.1-0.4,0.3c0,0.2,0.1,0.4,0.3,0.4c0.7,0,1.3,0.1,1.9,0.1c0,0,0,0,0,0
				c0.2,0,0.3-0.1,0.4-0.3c0-0.2-0.1-0.4-0.3-0.4C336.1,203.1,335.5,203,334.8,203C334.8,203,334.8,203,334.8,203L334.8,203z
				 M338.6,203.3c-0.2,0-0.3,0.1-0.4,0.3c0,0.2,0.1,0.4,0.3,0.4c0,0,0,0,0,0c0,0,0,0,0,0c0,0,0,0,0,0c0,0,0,0,0.1,0
				c0.7,0.1,1.3,0.1,1.9,0.2c0,0,0,0,0,0c0.2,0,0.3-0.1,0.4-0.3c0-0.2-0.1-0.4-0.3-0.4c-0.5,0-1-0.1-1.6-0.1L338.6,203.3
				C338.7,203.3,338.6,203.3,338.6,203.3L338.6,203.3z M344.1,203c0,0-0.1,0-0.1,0c-0.3,0.1-0.6,0.2-0.9,0.3
				c-0.2,0.1-0.4,0.1-0.6,0.2c0,0-0.1,0-0.1,0c-0.2,0-0.3,0.2-0.3,0.4c0,0.2,0.2,0.3,0.4,0.3c0,0,0,0,0,0c0,0,0,0,0.1,0c0,0,0,0,0,0
				c0,0,0,0,0,0c0,0,0,0,0,0c0,0,0,0,0,0c0,0,0,0,0,0c0,0,0,0,0,0c0,0,0,0,0,0c0,0,0,0,0,0c0,0,0,0,0,0c0,0,0,0,0,0
				c0.1,0,0.1,0,0.2,0c0,0,0,0,0,0c0,0,0,0,0,0c0,0,0,0,0,0c0,0,0,0,0,0c0,0,0,0,0,0c0,0,0,0,0,0c0,0,0,0,0,0l0,0l0,0l0,0l0,0l0,0
				l0,0l0,0l0,0l0,0l0,0l0,0c0,0,0,0,0,0c0,0,0,0,0,0c0,0,0,0,0,0c0,0,0,0,0,0c0,0,0,0,0,0c0,0,0,0,0,0c0,0,0,0,0,0c0,0,0,0,0,0
				c0,0,0,0,0,0c0,0,0,0,0,0c0,0,0,0,0,0c0,0,0,0,0,0c0,0,0,0,0,0c0.2-0.1,0.4-0.2,0.7-0.2c0,0,0,0,0,0c0,0,0,0,0,0c0,0,0,0,0,0
				c0,0,0,0,0,0c0,0,0,0,0,0c0,0,0,0,0,0c0.2-0.1,0.4-0.1,0.5-0.2c0,0,0,0,0,0c0,0,0,0,0,0c0,0,0,0,0,0c0,0,0,0,0,0l0,0c0,0,0,0,0,0
				c0,0,0,0,0,0c0,0,0,0,0,0c0,0,0,0,0,0c0,0,0,0,0,0c0,0,0,0,0,0c0,0,0,0,0,0c0,0,0,0,0,0c0,0,0,0,0,0c0,0,0,0,0,0c0,0,0,0,0,0
				c0,0,0,0,0,0c0,0,0,0,0,0c0.1,0,0.2-0.1,0.2-0.1c0.2-0.1,0.3-0.3,0.2-0.5C344.4,203.1,344.3,203,344.1,203L344.1,203z
				 M344.6,201.2c-0.1,0-0.2,0-0.2,0.1c-0.2,0.1-0.2,0.4,0,0.5l1.2,1.4c0.1,0,0.1-0.1,0.1-0.1l0.2-0.2l0,0l-0.2,0.2l0,0l0.2-0.2
				c0,0,0,0,0.1,0c0,0,0,0,0,0c0,0,0,0,0,0c0,0,0.1-0.1,0.1-0.1c0,0,0,0,0,0c0,0,0,0,0,0l0,0l0,0l0,0l0,0l0,0l0,0l0,0l0,0l0,0l0,0
				l0,0l0,0l0,0l0,0c0,0,0,0,0,0l0,0c0,0,0,0,0,0l0,0c0,0,0,0,0,0l0,0c0,0,0,0,0,0l0,0c0,0,0,0,0,0l0,0c0,0,0,0,0,0l0,0c0,0,0,0,0,0
				l0,0c0,0,0,0,0,0l0,0c0,0,0,0,0,0l0,0c0,0,0,0,0,0l0,0c0,0,0,0,0,0l0,0c0,0,0,0,0,0l0,0c0,0,0,0,0,0l0,0c0,0,0,0,0,0l0,0
				c0,0,0,0,0,0l0,0c0,0,0,0,0,0l0,0c0,0,0,0,0,0l0,0c0,0,0,0,0,0l0,0c0,0,0,0,0,0l0,0c0,0,0,0,0,0l0,0c0,0,0,0,0,0l0,0c0,0,0,0,0,0
				l0,0c0,0,0,0,0,0l0,0c0,0,0,0,0,0l0,0c0,0,0,0,0,0l0,0c0,0,0,0,0,0l0,0c0,0,0,0,0,0l0,0c0,0,0,0,0,0l-1-1.2
				C344.8,201.2,344.7,201.2,344.6,201.2L344.6,201.2z M342.1,198.2c-0.1,0-0.2,0-0.2,0.1c-0.2,0.1-0.2,0.4,0,0.5l1.2,1.5
				c0.1,0.1,0.2,0.1,0.3,0.1c0.1,0,0.2,0,0.2-0.1c0.2-0.1,0.2-0.4,0-0.5l-1.2-1.5C342.3,198.3,342.2,198.2,342.1,198.2L342.1,198.2z
				 M339.6,195.3c-0.1,0-0.2,0-0.2,0.1c-0.2,0.1-0.2,0.4,0,0.5l1.2,1.5c0.1,0.1,0.2,0.1,0.3,0.1c0.1,0,0.2,0,0.2-0.1
				c0.2-0.1,0.2-0.4,0-0.5l-1.3-1.5C339.8,195.4,339.7,195.3,339.6,195.3L339.6,195.3z M337.1,192.4c-0.1,0-0.2,0-0.2,0.1
				c-0.2,0.1-0.2,0.4,0,0.5l1.2,1.5c0.1,0.1,0.2,0.1,0.3,0.1c0.1,0,0.2,0,0.2-0.1c0.2-0.1,0.2-0.4,0-0.5l-1.3-1.5
				C337.3,192.4,337.2,192.4,337.1,192.4L337.1,192.4z M334.6,189.5c-0.1,0-0.2,0-0.2,0.1c-0.2,0.1-0.2,0.4,0,0.5l1.2,1.5
				c0.1,0.1,0.2,0.1,0.3,0.1c0.1,0,0.2,0,0.2-0.1c0.2-0.1,0.2-0.4,0-0.5c0,0-0.1-0.1-0.2-0.2l0,0c0,0,0,0,0,0l0,0c0,0,0,0,0,0l0,0
				c0,0,0,0,0,0l-1.1-1.3C334.8,189.5,334.7,189.5,334.6,189.5L334.6,189.5z M332.1,186.6c-0.1,0-0.2,0-0.2,0.1
				c-0.2,0.1-0.2,0.4,0,0.5l1.2,1.5c0.1,0.1,0.2,0.1,0.3,0.1c0.1,0,0.2,0,0.2-0.1c0.2-0.1,0.2-0.4,0-0.5l-1.3-1.5
				C332.3,186.6,332.2,186.6,332.1,186.6L332.1,186.6z M329.4,183.8c-0.1,0-0.2,0-0.3,0.1c-0.1,0.1-0.1,0.4,0,0.5l1.4,1.3
				c0.1,0.1,0.2,0.1,0.3,0.1c0.1,0,0.2,0,0.3-0.1c0.1-0.1,0.1-0.4,0-0.5l-1.4-1.3C329.6,183.9,329.5,183.8,329.4,183.8L329.4,183.8z
				 M326.7,181.1c-0.1,0-0.2,0-0.3,0.1c-0.1,0.1-0.1,0.4,0,0.5l1.4,1.3c0.1,0.1,0.2,0.1,0.3,0.1c0.1,0,0.2,0,0.3-0.1
				c0.1-0.1,0.1-0.4,0-0.5l-1.4-1.3C326.8,181.2,326.7,181.1,326.7,181.1L326.7,181.1z M323.6,178.9c-0.1,0-0.2,0.1-0.3,0.2
				c-0.1,0.2-0.1,0.4,0.1,0.5l1.6,1.1c0.1,0,0.1,0.1,0.2,0.1c0.1,0,0.2-0.1,0.3-0.2c0.1-0.2,0.1-0.4-0.1-0.5l-1.6-1.1
				C323.8,178.9,323.7,178.9,323.6,178.9L323.6,178.9z M320.5,176.6c-0.1,0-0.2,0.1-0.3,0.2c-0.1,0.2-0.1,0.4,0.1,0.5l1.6,1.1
				c0.1,0,0.1,0.1,0.2,0.1c0.1,0,0.2-0.1,0.3-0.2c0.1-0.2,0.1-0.4-0.1-0.5l-1.6-1.1C320.7,176.7,320.6,176.6,320.5,176.6
				L320.5,176.6z M317.3,174.7c-0.1,0-0.3,0.1-0.3,0.2c-0.1,0.2,0,0.4,0.2,0.5l1.7,0.9c0.1,0,0.1,0,0.2,0c0.1,0,0.3-0.1,0.3-0.2
				c0.1-0.2,0-0.4-0.2-0.5l0,0c0,0,0,0-0.1,0l0,0c0,0-0.1-0.1-0.2-0.1l0,0c-0.1,0-0.2-0.1-0.3-0.1l0,0c-0.1-0.1-0.2-0.1-0.3-0.2l0,0
				c-0.1-0.1-0.2-0.1-0.3-0.2l0,0c-0.1-0.1-0.2-0.1-0.3-0.1l0,0c-0.1,0-0.1-0.1-0.2-0.1l0,0c0,0-0.1,0-0.1,0l0,0
				C317.4,174.7,317.3,174.7,317.3,174.7L317.3,174.7z M313.8,173.2c-0.1,0-0.3,0.1-0.3,0.2c-0.1,0.2,0,0.4,0.2,0.5l1.7,0.7l0,0
				c0.1,0,0.1,0,0.2,0c0.1,0,0.3-0.1,0.3-0.2c0.1-0.2,0-0.4-0.2-0.5l0,0l0,0l0,0l0,0l0,0l0,0l0,0l0,0l0,0l0,0l0,0l0,0l0,0l0,0
				c0,0,0,0-0.1,0l0,0c0,0-0.1,0-0.1,0l0,0c0,0,0,0-0.1,0l0,0c0,0,0,0,0,0l0,0c0,0,0,0,0,0l0,0c0,0,0,0,0,0l0,0c0,0,0,0,0,0l0,0
				c0,0,0,0,0,0l0,0c0,0,0,0,0,0l0,0c0,0,0,0,0,0l0,0c0,0,0,0,0,0l0,0c0,0,0,0,0,0l0,0c0,0,0,0,0,0l0,0c0,0,0,0,0,0l0,0c0,0,0,0,0,0
				l0,0c0,0,0,0,0,0l0,0c0,0,0,0,0,0l0,0c0,0,0,0,0,0l0,0c0,0,0,0,0,0l0,0c0,0,0,0,0,0l0,0c0,0,0,0,0,0l0,0c0,0,0,0,0,0l0,0
				c0,0,0,0,0,0l0,0c0,0,0,0,0,0l0,0c0,0,0,0,0,0l0,0c0,0,0,0,0,0l0,0c0,0,0,0,0,0l0,0c0,0,0,0,0,0l0,0c0,0,0,0,0,0l0,0c0,0,0,0,0,0
				l0,0c0,0,0,0,0,0l0,0c0,0,0,0,0,0l0,0c0,0,0,0,0,0l-0.1,0c0,0,0,0,0,0l0,0c0,0,0,0,0,0l-1.1-0.4
				C313.9,173.2,313.8,173.2,313.8,173.2L313.8,173.2z M310.2,171.8c-0.1,0-0.3,0.1-0.3,0.2c-0.1,0.2,0,0.4,0.2,0.5l1.8,0.7
				c0,0,0.1,0,0.1,0c0.1,0,0.3-0.1,0.3-0.2c0.1-0.2,0-0.4-0.2-0.5l0,0c0,0,0,0,0,0l0,0c0,0,0,0,0,0l0,0c0,0,0,0,0,0l0,0
				c0,0,0,0-0.1,0l0,0c-0.3-0.1-1.7-0.7-1.7-0.7C310.3,171.8,310.2,171.8,310.2,171.8L310.2,171.8z M306.6,170.4
				c-0.1,0-0.3,0.1-0.3,0.2c-0.1,0.2,0,0.4,0.2,0.5l1.8,0.7c0,0,0.1,0,0.1,0c0.1,0,0.3-0.1,0.3-0.2c0.1-0.2,0-0.4-0.2-0.5l-1.8-0.7
				C306.7,170.5,306.6,170.4,306.6,170.4L306.6,170.4z M302.9,169.7c-0.2,0-0.3,0.1-0.4,0.3c0,0.2,0.1,0.4,0.3,0.4l1.9,0.3
				c0,0,0,0,0,0c0.2,0,0.3-0.1,0.4-0.3c0-0.2-0.1-0.4-0.3-0.4c0,0-0.5-0.1-1-0.1l0,0c0,0,0,0,0,0l0,0c0,0,0,0,0,0l0,0c0,0,0,0,0,0
				l0,0c0,0,0,0,0,0l0,0c0,0,0,0,0,0L302.9,169.7C302.9,169.7,302.9,169.7,302.9,169.7L302.9,169.7z M299.1,169.2
				c-0.2,0-0.3,0.1-0.4,0.3c0,0.2,0.1,0.4,0.3,0.4l1.9,0.3c0,0,0,0,0,0c0.2,0,0.3-0.1,0.4-0.3c0-0.2-0.1-0.4-0.3-0.4L299.1,169.2
				C299.1,169.2,299.1,169.2,299.1,169.2L299.1,169.2z M295.3,168.7c-0.2,0-0.3,0.1-0.4,0.3c0,0.2,0.1,0.4,0.3,0.4l1.9,0.3
				c0,0,0,0,0,0c0.2,0,0.3-0.1,0.4-0.3c0-0.2-0.1-0.4-0.3-0.4l-0.6-0.1c0,0,0,0,0,0l0,0C296.1,168.8,295.3,168.7,295.3,168.7
				C295.3,168.7,295.3,168.7,295.3,168.7L295.3,168.7z M291.5,168.2c-0.2,0-0.3,0.1-0.4,0.3c0,0.2,0.1,0.4,0.3,0.4l1.9,0.3
				c0,0,0,0,0,0c0.2,0,0.3-0.1,0.4-0.3c0-0.2-0.1-0.4-0.3-0.4L291.5,168.2C291.5,168.2,291.5,168.2,291.5,168.2L291.5,168.2z
				 M287.7,167.7c-0.2,0-0.3,0.1-0.4,0.3c0,0.2,0.1,0.4,0.3,0.4l1.9,0.3c0,0,0,0,0,0c0.2,0,0.3-0.1,0.4-0.3c0-0.2-0.1-0.4-0.3-0.4
				c0,0-0.4-0.1-0.9-0.1l0,0c0,0,0,0,0,0L287.7,167.7C287.7,167.7,287.7,167.7,287.7,167.7L287.7,167.7z M283.9,167.2
				c-0.2,0-0.3,0.1-0.4,0.3c0,0.2,0.1,0.4,0.3,0.4l1.9,0.3c0,0,0,0,0,0c0.2,0,0.3-0.1,0.4-0.3c0-0.2-0.1-0.4-0.3-0.4L283.9,167.2
				C283.9,167.2,283.9,167.2,283.9,167.2L283.9,167.2z"/>
		</g>
		<g>
			<path class="st2" d="M308.9,144.8l-6.5-0.3l-0.3-0.1l-0.7-0.7c-0.3,0.7-0.6,1.2-0.7,1.2c-1,0.6-1.9,1.6-1.9,1.6s-0.3,0.4-2.4,3
				c-2.1,2.4-4.4,4.9-7.3,5.8c-3,0.9-4.7,3.4-6.1,5.6c-1.2,2.1-1,2.1-1.2,3.7l24.1,3.4h0.1l9.8,3.9l1.3-2.5l-1.9-0.9l-0.1-0.6
				l1.8-3.7l-3.1-1l-0.3-0.6l4.3-7.3l-3.6-1.6l-0.1-0.6l2.1-4.7L308.9,144.8z"/>
			<path d="M299,146.3c-0.1,0-0.2,0-0.2,0.1c0,0-0.1,0.1-0.1,0.1l0,0l0,0v0l0,0l0,0c0,0,0,0,0,0c0,0,0,0,0,0c0,0,0,0,0,0s0,0,0,0
				c0,0,0,0,0,0c0,0,0,0,0,0l0,0c0,0,0,0,0,0c0,0,0,0,0,0c0,0,0,0,0,0c0,0,0,0,0,0c0,0,0,0,0,0l0,0c0,0,0,0,0,0c0,0,0,0,0,0v0
				c0,0,0,0,0,0l0,0c0,0,0,0,0,0c0,0,0,0,0,0c0,0,0,0,0,0c0,0,0,0,0,0c0,0,0,0,0,0c0,0,0,0,0,0c0,0,0,0,0,0c0,0,0,0,0,0c0,0,0,0,0,0
				c0,0,0,0,0,0c0,0,0,0,0,0c0,0,0,0,0,0c0,0,0,0,0,0c0,0,0,0,0,0c0,0,0,0,0,0c0,0,0,0,0,0c0,0,0,0,0,0c0,0,0,0,0,0c0,0,0,0,0,0
				c0,0,0,0,0,0s0,0,0,0c0,0,0,0,0,0c0,0,0,0,0,0c0,0,0,0,0,0c0,0,0,0,0,0c0,0,0,0,0,0c0,0,0,0,0,0c0,0,0,0,0,0c0,0,0,0,0,0
				c0,0,0,0,0,0c0,0,0,0,0,0c-0.1,0.1-0.3,0.5-1.2,1.5c-0.1,0.2-0.1,0.4,0.1,0.5c0.1,0.1,0.2,0.1,0.2,0.1c0.1,0,0.2,0,0.3-0.1
				c1-1.3,1.2-1.6,1.3-1.6c0.1-0.2,0.1-0.4-0.1-0.5C299.2,146.3,299.1,146.3,299,146.3L299,146.3z M296.5,149.4
				c-0.1,0-0.2,0-0.3,0.1c-0.3,0.4-0.6,0.7-1,1.1c0,0,0,0,0,0c0,0,0,0,0,0c0,0,0,0,0,0c0,0,0,0,0,0c0,0,0,0,0,0c0,0,0,0,0,0
				c0,0,0,0,0,0c0,0,0,0,0,0c0,0,0,0,0,0c0,0,0,0,0,0c0,0,0,0,0,0c0,0,0,0,0,0c0,0,0,0,0,0c0,0,0,0,0,0c0,0,0,0,0,0c0,0,0,0,0,0
				c0,0,0,0,0,0c0,0,0,0,0,0c0,0,0,0,0,0c0,0,0,0,0,0c0,0,0,0,0,0c0,0,0,0,0,0c0,0,0,0,0,0c0,0,0,0,0,0c0,0,0,0,0,0c0,0,0,0,0,0
				c0,0,0,0,0,0c0,0,0,0,0,0c-0.1,0.1-0.1,0.1-0.2,0.2c-0.1,0.2-0.1,0.4,0,0.5c0.1,0.1,0.2,0.1,0.3,0.1c0.1,0,0.2,0,0.3-0.1
				c0.4-0.4,0.8-0.9,1.3-1.5c0.1-0.2,0.1-0.4,0-0.5C296.7,149.4,296.6,149.4,296.5,149.4L296.5,149.4z M293.8,152.3
				c-0.1,0-0.2,0-0.3,0.1c-0.3,0.2-0.5,0.5-0.8,0.7c0,0,0,0,0,0c0,0,0,0,0,0c0,0,0,0,0,0c0,0,0,0,0,0c0,0,0,0,0,0c0,0,0,0,0,0
				c0,0,0,0,0,0c0,0,0,0,0,0c0,0,0,0,0,0c0,0,0,0,0,0c0,0,0,0,0,0c0,0,0,0,0,0c0,0,0,0,0,0c0,0,0,0,0,0c0,0,0,0,0,0c0,0,0,0,0,0
				c0,0,0,0,0,0c0,0,0,0,0,0c0,0,0,0,0,0c0,0,0,0,0,0c0,0,0,0,0,0c0,0,0,0,0,0c0,0,0,0,0,0c0,0,0,0,0,0c0,0,0,0,0,0c0,0,0,0,0,0
				c0,0,0,0,0,0c0,0,0,0,0,0c0,0,0,0,0,0c0,0,0,0,0,0c0,0,0,0,0,0c0,0,0,0,0,0c0,0,0,0,0,0c0,0,0,0,0,0c0,0,0,0,0,0c0,0,0,0,0,0
				c0,0,0,0,0,0c0,0,0,0,0,0c0,0,0,0,0,0c0,0,0,0,0,0c0,0,0,0,0,0c0,0,0,0,0,0c0,0,0,0,0,0c0,0,0,0,0,0c0,0,0,0,0,0l0,0
				c-0.2,0.1-0.4,0.3-0.6,0.4c-0.2,0.1-0.2,0.4-0.1,0.5c0.1,0.1,0.2,0.2,0.3,0.2c0.1,0,0.2,0,0.2-0.1c0.5-0.4,1-0.8,1.6-1.3
				c0.2-0.1,0.2-0.4,0-0.5C294,152.3,293.9,152.3,293.8,152.3L293.8,152.3z M290.5,154.7c-0.1,0-0.1,0-0.2,0
				c-0.3,0.1-0.6,0.3-0.9,0.4l0,0c0,0,0,0,0,0l0,0c0,0-0.1,0-0.1,0l0,0c0,0,0,0,0,0l0,0c0,0,0,0,0,0l0,0c0,0,0,0,0,0l0,0
				c0,0,0,0,0,0l0,0c0,0,0,0,0,0l0,0c0,0,0,0,0,0l0,0c0,0,0,0,0,0c0,0,0,0,0,0c0,0,0,0,0,0c0,0,0,0,0,0c0,0,0,0,0,0l0,0c0,0,0,0,0,0
				l0,0c0,0,0,0,0,0c0,0,0,0,0,0c0,0,0,0,0,0c0,0,0,0,0,0c0,0,0,0,0,0l0,0c0,0,0,0,0,0c0,0,0,0,0,0c0,0,0,0,0,0c0,0,0,0,0,0
				c0,0,0,0,0,0l0,0c0,0,0,0,0,0c0,0,0,0,0,0c0,0,0,0,0,0c0,0,0,0,0,0c-0.1,0-0.2,0.1-0.2,0.1c0,0,0,0,0,0c0,0,0,0,0,0c0,0,0,0,0,0
				c0,0,0,0,0,0c0,0,0,0,0,0c0,0,0,0,0,0c0,0,0,0,0,0c0,0,0,0,0,0c0,0,0,0,0,0c0,0,0,0,0,0c0,0,0,0,0,0c0,0,0,0,0,0c0,0,0,0,0,0
				c0,0,0,0,0,0c0,0,0,0,0,0c0,0,0,0,0,0c0,0,0,0,0,0c0,0,0,0,0,0c0,0,0,0,0,0c0,0,0,0,0,0c0,0,0,0,0,0c0,0,0,0,0,0c0,0,0,0,0,0
				c0,0,0,0,0,0c0,0,0,0,0,0l0,0c-0.1,0-0.2,0.1-0.2,0.1c-0.2,0.1-0.3,0.3-0.2,0.5c0.1,0.1,0.2,0.2,0.3,0.2c0,0,0.1,0,0.1,0
				c0.2-0.1,0.4-0.1,0.6-0.2c0.4-0.1,0.9-0.3,1.3-0.5c0.2-0.1,0.3-0.3,0.2-0.5C290.7,154.7,290.6,154.7,290.5,154.7L290.5,154.7z
				 M286.9,156.3c-0.1,0-0.2,0-0.2,0.1c-0.2,0.1-0.3,0.3-0.5,0.4c0,0,0,0,0,0c0,0,0,0,0,0c0,0,0,0,0,0c0,0,0,0-0.1,0c0,0,0,0,0,0
				c0,0,0,0,0,0c0,0,0,0,0,0c0,0,0,0,0,0c0,0,0,0,0,0c0,0,0,0,0,0c0,0,0,0,0,0c0,0,0,0,0,0c0,0,0,0,0,0c0,0,0,0,0,0c0,0,0,0,0,0
				c0,0,0,0,0,0c0,0,0,0,0,0c0,0,0,0,0,0c0,0,0,0,0,0c0,0,0,0,0,0c0,0,0,0,0,0c0,0,0,0,0,0c0,0,0,0,0,0c0,0,0,0,0,0c0,0,0,0,0,0
				c0,0,0,0,0,0c0,0,0,0,0,0c0,0,0,0,0,0c0,0,0,0,0,0c0,0,0,0,0,0c0,0,0,0,0,0c0,0,0,0,0,0c0,0,0,0,0,0c0,0,0,0,0,0c0,0,0,0,0,0
				c0,0,0,0,0,0c0,0,0,0,0,0c0,0,0,0,0,0c0,0,0,0,0,0c0,0,0,0,0,0c0,0,0,0,0,0c0,0,0,0,0,0c0,0,0,0,0,0c0,0,0,0,0,0c0,0,0,0,0,0
				c0,0,0,0,0,0c0,0,0,0,0,0c0,0,0,0,0,0c0,0,0,0,0,0c0,0,0,0,0,0c0,0,0,0,0,0c0,0,0,0,0,0c0,0,0,0,0,0c0,0,0,0,0,0c0,0,0,0,0,0
				c0,0,0,0,0,0c0,0,0,0,0,0c0,0,0,0,0,0c0,0,0,0,0,0c0,0,0,0,0,0c0,0,0,0,0,0c0,0,0,0,0,0c0,0,0,0,0,0c0,0,0,0,0,0c0,0,0,0,0,0
				c0,0,0,0,0,0c0,0,0,0,0,0c0,0,0,0,0,0c0,0,0,0,0,0c0,0,0,0,0,0c0,0,0,0,0,0c0,0,0,0,0,0c0,0,0,0,0,0c0,0,0,0,0,0c0,0,0,0,0,0
				c0,0,0,0,0,0c0,0,0,0,0,0c0,0,0,0,0,0c0,0,0,0,0,0c0,0,0,0,0,0c0,0,0,0,0,0c0,0,0,0,0,0c0,0,0,0,0,0c0,0,0,0,0,0c0,0,0,0,0,0
				c0,0,0,0,0,0c0,0,0,0,0,0c0,0,0,0,0,0c0,0,0,0,0,0c0,0,0,0,0,0c0,0,0,0,0,0c0,0,0,0,0,0c0,0,0,0,0,0c0,0,0,0,0,0c0,0,0,0,0,0
				c0,0,0,0,0,0c0,0,0,0,0,0c0,0,0,0,0,0c0,0,0,0,0,0c0,0,0,0,0,0c0,0,0,0,0,0c0,0,0,0,0,0c0,0,0,0,0,0c0,0,0,0,0,0c0,0,0,0,0,0
				c0,0,0,0,0,0c0,0,0,0,0,0c0,0,0,0,0,0c0,0,0,0,0,0c0,0,0,0,0,0c0,0,0,0,0,0c0,0,0,0,0,0c0,0,0,0,0,0c0,0,0,0,0,0c0,0,0,0,0,0
				c0,0,0,0,0,0c0,0,0,0,0,0c0,0,0,0,0,0c0,0,0,0,0,0c0,0,0,0,0,0c0,0,0,0,0,0c0,0,0,0,0,0c0,0,0,0,0,0c0,0,0,0,0,0c0,0,0,0,0,0
				c0,0,0,0,0,0c0,0,0,0,0,0c0,0,0,0,0,0c0,0,0,0,0,0c0,0,0,0,0,0c0,0,0,0,0,0c0,0,0,0,0,0c0,0,0,0,0,0c0,0,0,0,0,0c0,0,0,0,0,0
				c0,0,0,0,0,0c0,0,0,0,0,0c0,0,0,0,0,0c0,0,0,0,0,0c0,0,0,0,0,0c0,0,0,0,0,0c0,0,0,0,0,0c0,0,0,0,0,0c0,0,0,0,0,0c0,0,0,0,0,0
				c0,0,0,0,0,0c0,0,0,0,0,0c0,0,0,0,0,0c0,0,0,0,0,0c0,0,0,0,0,0c0,0,0,0,0,0c0,0,0,0,0,0c0,0,0,0,0,0c0,0,0,0,0,0c0,0,0,0,0,0l0,0
				c0,0,0,0,0,0c0,0,0,0,0,0c0,0,0,0,0,0c0,0,0,0,0,0c0,0,0,0,0,0c0,0,0,0,0,0c0,0,0,0,0,0c0,0,0,0,0,0c0,0,0,0,0,0c0,0,0,0,0,0
				c0,0,0,0,0,0c0,0,0,0,0,0c0,0,0,0,0,0c0,0,0,0,0,0c0,0,0,0,0,0c0,0,0,0,0,0c0,0,0,0,0,0c0,0,0,0,0,0c0,0,0,0,0,0c0,0,0,0,0,0
				c0,0,0,0,0,0c0,0,0,0,0,0c0,0,0,0,0,0c0,0,0,0,0,0c0,0,0,0,0,0c0,0,0,0,0,0c0,0,0,0,0,0c0,0,0,0,0,0c0,0,0,0,0,0c0,0,0,0,0,0
				c0,0,0,0,0,0c0,0,0,0,0,0c0,0,0,0,0,0c0,0,0,0,0,0c0,0,0,0,0,0c0,0,0,0,0,0c0,0,0,0,0,0c0,0,0,0,0,0c0,0,0,0,0,0c0,0,0,0,0,0
				c0,0,0,0,0,0c0,0,0,0,0,0c0,0,0,0,0,0c0,0,0,0,0,0c0,0,0,0,0,0c0,0,0,0,0,0c0,0,0,0,0,0c0,0,0,0,0,0c0,0,0,0,0,0c0,0,0,0,0,0
				c0,0,0,0,0,0c0,0,0,0,0,0c0,0,0,0,0,0c0,0,0,0,0,0c0,0,0,0,0,0c0,0,0,0,0,0c0,0,0,0,0,0c0,0,0,0,0,0c0,0,0,0,0,0c0,0,0,0,0,0
				c0,0,0,0,0,0c0,0-0.1,0.1-0.1,0.1c-0.1,0.2-0.1,0.4,0,0.5c0.1,0.1,0.2,0.1,0.3,0.1c0.1,0,0.2,0,0.3-0.1c0.4-0.5,0.9-0.9,1.4-1.2
				c0.2-0.1,0.2-0.4,0.1-0.5C287.2,156.4,287.1,156.3,286.9,156.3L286.9,156.3z M284.3,159.1c-0.1,0-0.2,0.1-0.3,0.2
				c-0.4,0.5-0.7,1.1-1,1.6l0,0l0,0c0,0,0,0,0,0c0,0,0,0,0,0c0,0,0,0,0,0.1c-0.1,0.2,0,0.4,0.1,0.5c0.1,0,0.1,0,0.2,0
				c0.1,0,0.3-0.1,0.3-0.2l0-0.1c0.4-0.6,0.7-1.1,1-1.5c0.1-0.2,0.1-0.4-0.1-0.5C284.5,159.1,284.4,159.1,284.3,159.1L284.3,159.1z
				 M282.4,162.4c-0.2,0-0.3,0.1-0.4,0.3c-0.1,0.4-0.2,0.8-0.2,1.3c0,0,0,0.1,0,0.1c0,0,0,0,0,0c0,0,0,0,0,0c0,0,0,0,0,0
				c0,0,0,0,0,0c0,0,0,0.1,0,0.1c0,0,0,0,0,0c0,0,0,0,0,0c0,0,0,0,0,0c0,0,0,0,0,0c0,0,0,0,0,0c0,0,0,0,0,0c0,0.1,0,0.2,0,0.3
				c0,0,0,0,0,0c0,0,0,0,0,0c0,0,0,0,0,0c0,0,0,0,0,0c0,0,0,0,0,0l0,0c0,0,0,0,0,0h0c0,0,0,0,0,0l0,0c0,0,0,0,0,0l0,0c0,0,0,0,0,0
				l0,0c0,0,0,0,0,0l0,0c0,0,0,0,0,0l0.1,0c0,0,0,0,0.1,0c0,0,0,0,0,0l0.6,0.1c0-0.2,0-0.4,0-0.6c0-0.5,0.1-0.8,0.2-1.1
				c0.1-0.2,0-0.4-0.2-0.5C282.5,162.4,282.5,162.4,282.4,162.4L282.4,162.4z M283.9,164.1c-0.2,0-0.3,0.1-0.4,0.3
				c0,0.2,0.1,0.4,0.3,0.4l2,0.3c0,0,0,0,0.1,0c0.2,0,0.3-0.1,0.4-0.3c0-0.2-0.1-0.4-0.3-0.4L283.9,164.1
				C284,164.1,284,164.1,283.9,164.1L283.9,164.1z M287.9,164.6c-0.2,0-0.3,0.1-0.4,0.3c0,0.2,0.1,0.4,0.3,0.4l2,0.3c0,0,0,0,0.1,0
				c0.2,0,0.3-0.1,0.4-0.3c0-0.2-0.1-0.4-0.3-0.4L287.9,164.6C287.9,164.6,287.9,164.6,287.9,164.6L287.9,164.6z M291.8,165.2
				c-0.2,0-0.3,0.1-0.4,0.3c0,0.2,0.1,0.4,0.3,0.4l1.9,0.3c0,0,0,0,0,0l0,0c0,0,0,0,0.1,0c0.2,0,0.3-0.1,0.4-0.3
				c0-0.2-0.1-0.4-0.3-0.4L291.8,165.2C291.8,165.2,291.8,165.2,291.8,165.2L291.8,165.2z M295.7,165.7c-0.2,0-0.3,0.1-0.4,0.3
				c0,0.2,0.1,0.4,0.3,0.4l2,0.3c0,0,0,0,0.1,0c0.2,0,0.3-0.1,0.4-0.3c0-0.2-0.1-0.4-0.3-0.4L295.7,165.7
				C295.7,165.7,295.7,165.7,295.7,165.7L295.7,165.7z M299.6,166.3c-0.2,0-0.3,0.1-0.4,0.3c0,0.2,0.1,0.4,0.3,0.4l2,0.3
				c0,0,0,0,0.1,0c0.2,0,0.3-0.1,0.4-0.3c0-0.2-0.1-0.4-0.3-0.4L299.6,166.3C299.7,166.3,299.6,166.3,299.6,166.3L299.6,166.3z
				 M303.5,166.8c-0.2,0-0.3,0.1-0.4,0.3c0,0.2,0.1,0.4,0.3,0.4l2,0.3c0,0,0,0,0.1,0c0.2,0,0.3-0.1,0.4-0.3c0-0.2-0.1-0.4-0.3-0.4
				L303.5,166.8C303.6,166.8,303.6,166.8,303.5,166.8L303.5,166.8z M307.5,167.7c-0.1,0-0.3,0.1-0.3,0.2c-0.1,0.2,0,0.4,0.2,0.5
				l1.8,0.7c0,0,0.1,0,0.1,0c0.1,0,0.3-0.1,0.3-0.2c0.1-0.2,0-0.4-0.2-0.5l-1.8-0.7C307.6,167.7,307.5,167.7,307.5,167.7
				L307.5,167.7z M311.1,169.1c-0.1,0-0.3,0.1-0.3,0.2c-0.1,0.2,0,0.4,0.2,0.5l0.1,0.1c0,0,0,0,0,0l0,0c0,0,0,0,0,0l0,0l0,0l0,0
				c0,0,0,0,0,0l0,0c0,0,0,0,0,0l0,0l0,0l0,0c0,0,0,0,0,0l0,0l0,0l0,0c0,0,0,0,0,0l0,0c0,0,0,0,0,0l0,0c0,0,0,0,0,0l0,0c0,0,0,0,0,0
				l0,0c0,0,0,0,0,0l0,0c0,0,0,0,0,0l0,0c0,0,0,0,0,0l0,0c0,0,0,0,0,0l0,0c0,0,0,0,0,0l0,0c0,0,0,0,0,0l0,0c0.5,0.2,1.6,0.6,1.6,0.6
				c0,0,0.1,0,0.1,0c0.1,0,0.3-0.1,0.3-0.2c0.1-0.2,0-0.4-0.2-0.5l-1.8-0.7C311.2,169.2,311.2,169.1,311.1,169.1L311.1,169.1z
				 M314.8,170.6c-0.1,0-0.3,0.1-0.3,0.2c-0.1,0.2,0,0.4,0.2,0.5l1.2,0.5l0,0l0.3-0.6c0.1-0.2,0-0.4-0.2-0.5c-0.1,0-0.1,0-0.2,0
				c-0.1,0-0.3,0.1-0.3,0.2l0,0l-0.6-0.2C314.9,170.6,314.9,170.6,314.8,170.6L314.8,170.6z M315.4,168.5c-0.1,0-0.3,0.1-0.3,0.2
				c-0.1,0.2,0,0.4,0.2,0.5l1.6,0.7l0.4-0.7l0,0l0,0l0,0l0,0l0,0l0,0l-1.6-0.8C315.5,168.5,315.5,168.5,315.4,168.5L315.4,168.5z
				 M316.1,164.5c-0.1,0-0.3,0.1-0.3,0.2l-0.9,1.8c-0.1,0.2,0,0.4,0.2,0.5c0.1,0,0.1,0,0.2,0c0.1,0,0.3-0.1,0.3-0.2l0.3-0.7
				c0,0,0,0,0,0l0,0c0,0,0,0,0,0l0,0c0,0,0,0,0,0l0,0c0,0,0,0,0,0l0,0c0,0,0,0,0,0l0,0c0.2-0.5,0.5-1.1,0.5-1.1
				c0.1-0.2,0-0.4-0.2-0.5C316.2,164.5,316.2,164.5,316.1,164.5L316.1,164.5z M314.1,163.2c-0.2,0-0.3,0.1-0.4,0.3
				c-0.1,0.2,0,0.4,0.2,0.5l1.9,0.6c0,0,0.1,0,0.1,0c0.2,0,0.3-0.1,0.4-0.3c0.1-0.2,0-0.4-0.2-0.5c0,0-0.1,0-0.4-0.1l0,0
				c0,0,0,0,0,0l0,0c0,0,0,0,0,0l-1.5-0.5C314.2,163.2,314.1,163.2,314.1,163.2L314.1,163.2z M314.7,159.4c-0.1,0-0.3,0.1-0.3,0.2
				l-1,1.7c-0.1,0.2,0,0.4,0.1,0.5c0.1,0,0.1,0.1,0.2,0.1c0.1,0,0.3-0.1,0.3-0.2l1-1.7c0.1-0.2,0-0.4-0.1-0.5
				C314.8,159.4,314.7,159.4,314.7,159.4L314.7,159.4z M316.7,156c-0.1,0-0.3,0.1-0.3,0.2l-1,1.7c-0.1,0.2,0,0.4,0.1,0.5
				c0.1,0,0.1,0.1,0.2,0.1c0.1,0,0.3-0.1,0.3-0.2l0.6-1.1l0,0l0,0c0,0,0,0,0,0l0,0c0.2-0.3,0.4-0.6,0.4-0.6c0.1-0.2,0-0.4-0.1-0.5
				C316.8,156,316.8,156,316.7,156L316.7,156z M315.5,154.2c-0.1,0-0.3,0.1-0.3,0.2c-0.1,0.2,0,0.4,0.2,0.5l1.8,0.8
				c0.1,0,0.1,0,0.2,0c0.1,0,0.2,0,0.3-0.1l0.1-0.2c0-0.2,0-0.3-0.2-0.4c0,0-1-0.5-1.5-0.7l0,0c0,0,0,0,0,0l0,0c0,0,0,0,0,0l0,0
				c0,0,0,0,0,0l0,0c0,0,0,0,0,0l0,0c0,0,0,0,0,0l0,0c0,0,0,0,0,0l0,0c0,0,0,0,0,0l0,0c0,0,0,0,0,0l0,0c0,0,0,0,0,0l0,0c0,0,0,0,0,0
				l0,0c0,0,0,0,0,0l-0.2-0.1C315.6,154.2,315.6,154.2,315.5,154.2L315.5,154.2z M314.5,150.8c-0.1,0-0.3,0.1-0.3,0.2l-0.7,1.7
				c-0.1,0.2-0.1,0.3,0,0.5l0,0.2c0,0.2,0.2,0.3,0.4,0.3c0,0,0.1,0,0.1,0c0.2-0.1,0.3-0.3,0.3-0.5l0-0.2c0,0,0,0,0,0l0,0
				c0,0,0,0,0,0l0,0c0,0,0,0,0,0l0,0c0,0,0,0,0,0l0,0c0,0,0,0,0,0l0,0l0,0l0,0c0,0,0,0,0,0l0,0c0,0,0,0,0,0l0,0c0,0,0,0,0,0l0,0
				c0,0,0,0,0,0l0,0c0,0,0,0,0,0l0,0c0,0,0,0,0,0l0,0c0,0,0,0,0,0l0,0c0,0,0,0,0,0l0,0c0,0,0,0,0,0l0.7-1.6c0.1-0.2,0-0.4-0.2-0.5
				C314.6,150.8,314.5,150.8,314.5,150.8L314.5,150.8z M315.5,147.9L315.5,147.9L315.5,147.9L315.5,147.9L315.5,147.9
				C315.5,147.9,315.5,147.9,315.5,147.9c-0.2,0-0.3,0.1-0.4,0.2c-0.1,0.1,0,0.3,0.1,0.4l-0.3,0.6c-0.1,0.2,0,0.4,0.2,0.5
				c0,0,0.1,0,0.2,0c0.1,0,0.3-0.1,0.3-0.2l0.6-1.3l0,0l0,0l0,0l0,0l0,0l0,0l0,0l0,0l0,0l0,0l0,0l0,0l0,0l0,0l-0.5-0.3
				C315.6,148,315.6,148,315.5,147.9L315.5,147.9L315.5,147.9z M311.9,146.3c-0.1,0-0.3,0.1-0.3,0.2c-0.1,0.2,0,0.4,0.2,0.5l1.8,0.8
				c0.1,0,0.1,0,0.2,0c0.1,0,0.3-0.1,0.3-0.2c0.1-0.2,0-0.4-0.2-0.5l-0.4-0.2c0,0,0,0,0,0l0,0c0,0,0,0,0,0l0,0c0,0,0,0,0,0l0,0
				c0,0,0,0,0,0l0,0c0,0,0,0,0,0l0,0c0,0,0,0,0,0l0,0c0,0,0,0,0,0l0,0c0,0,0,0,0,0l0,0c0,0,0,0,0,0l0,0c0,0,0,0,0,0l0,0
				c-0.5-0.2-1.4-0.6-1.4-0.6C312,146.3,312,146.3,311.9,146.3L311.9,146.3z M308.4,144.8c-0.2,0-0.4,0.2-0.4,0.4
				c0,0.2,0.2,0.4,0.4,0.4l0.3,0l1.2,0.6c0.1,0,0.1,0,0.2,0c0.1,0,0.3-0.1,0.3-0.2c0.1-0.2,0-0.4-0.2-0.5l-1.3-0.6l0,0l0,0l0,0l0,0
				l0,0l0,0l0,0l0,0l0,0l0,0l0,0l0,0l0,0L308.4,144.8C308.4,144.8,308.4,144.8,308.4,144.8L308.4,144.8z M304.5,144.6
				c-0.2,0-0.4,0.2-0.4,0.4c0,0.2,0.2,0.4,0.4,0.4l2,0.1c0,0,0,0,0,0c0.2,0,0.4-0.2,0.4-0.4c0-0.2-0.1-0.4-0.4-0.4l-1.2-0.1
				c0,0,0,0,0,0l0,0c0,0,0,0,0,0l0,0c0,0,0,0,0,0l0,0c0,0,0,0,0,0l0,0c0,0,0,0,0,0l0,0C304.8,144.6,304.5,144.6,304.5,144.6
				C304.5,144.6,304.5,144.6,304.5,144.6L304.5,144.6z M301.4,143.6c-0.3,0.7-0.6,1.2-0.7,1.2l0,0c0,0,0,0,0,0c0,0,0,0,0,0
				c0,0,0,0,0,0c0,0,0,0,0,0c0,0,0,0,0,0c0,0,0,0,0,0c0,0,0,0,0,0c0,0,0,0,0,0c0,0,0,0,0,0l0,0c0,0,0,0,0,0c0,0,0,0,0,0c0,0,0,0,0,0
				c0,0,0,0,0,0c0,0,0,0,0,0c0,0,0,0,0,0c0,0,0,0,0,0c0,0,0,0,0,0c0,0,0,0,0,0c0,0,0,0,0,0c0,0,0,0,0,0c0,0,0,0,0,0c0,0,0,0,0,0
				c0,0,0,0,0,0c0,0,0,0,0,0l0,0c0,0,0,0,0,0l0,0c0,0,0,0,0,0l0,0c0,0,0,0,0,0v0c0,0,0,0,0,0c0,0,0,0,0,0c0,0,0,0,0,0c0,0,0,0,0,0
				c0,0,0,0,0,0c0,0,0,0,0,0c0,0,0,0,0,0c0,0,0,0,0,0c0,0,0,0,0,0c0,0,0,0,0,0c0,0,0,0,0,0c0,0,0,0,0,0c0,0,0,0,0,0c0,0,0,0,0,0
				c0,0,0,0,0,0c0,0,0,0,0,0c0,0,0,0,0,0c0,0,0,0,0,0c0,0,0,0,0,0c0,0,0,0,0,0c0,0,0,0,0,0c0,0,0,0,0,0c0,0,0,0,0,0c0,0,0,0,0,0
				c0,0,0,0,0,0c0,0,0,0,0,0c0,0,0,0,0,0c0,0,0,0,0,0c0,0,0,0,0,0c0,0,0,0,0,0c0,0,0,0,0,0c0,0,0,0,0,0c0,0,0,0,0,0c0,0,0,0,0,0
				c0,0,0,0,0,0s0,0,0,0c0,0,0,0,0,0c0,0,0,0,0,0c0,0,0,0,0,0c0,0,0,0,0,0c0,0,0,0,0,0c0,0,0,0,0,0c0,0,0,0,0,0c0,0,0,0,0,0
				c0,0,0,0,0,0c0,0,0,0,0,0c0,0,0,0,0,0c0,0,0,0,0,0c0,0,0,0,0,0c0,0,0,0,0,0c0,0,0,0,0,0c-0.1,0-0.1,0.1-0.2,0.1
				c-0.2,0.1-0.2,0.4-0.1,0.5c0.1,0.1,0.2,0.2,0.3,0.2c0.1,0,0.2,0,0.2-0.1c0.1-0.1,0.2-0.1,0.3-0.2c0.2-0.1,0.4-0.2,0.7-0.6l0,0
				c0.1,0.1,0.1,0.1,0.2,0.1l0.3,0.1c0.1,0,0.2,0.1,0.3,0.1l0.1,0c0,0,0,0,0,0c0.2,0,0.4-0.2,0.4-0.4c0-0.2-0.2-0.4-0.4-0.4l-0.1,0
				c0,0,0,0,0,0l0,0c0,0,0,0,0,0l0,0c0,0,0,0,0,0l0,0c0,0,0,0,0,0l0,0l0,0c0,0,0,0,0,0l0,0c0,0,0,0,0,0l0,0c0,0,0,0,0,0l0,0
				c0,0,0,0-0.1,0l0,0c0,0,0,0-0.1,0l0,0c0,0,0,0,0,0l0,0c0,0,0,0,0,0l0,0c0,0,0,0,0,0l0,0l0,0c0,0,0,0,0,0l0,0c0,0,0,0-0.1-0.1l0,0
				c0,0,0,0-0.1-0.1l0,0L301.4,143.6L301.4,143.6z"/>
		</g>
		<g>
			<polygon class="st2" points="170.4,195.2 162.9,179.1 134.4,186.1 146.7,198.1 154.1,202.9 154.1,203.6 150.5,208.1 153.4,211.5 
				153.2,212.1 150.5,214.4 156,221.9 157.4,223 169,222.7 169.4,223 170,225.3 169.8,225.7 168.8,226.4 168.7,226.4 166.2,226.9 
				165.8,232.1 166.7,234.5 170.9,234.8 171.3,235.3 170.3,242.2 169.8,242.6 167.1,242.6 166.2,246.7 169.1,247.5 171.4,246.1 
				172,246.1 173.7,247.8 175.8,244.5 176.5,240.3 173.5,214.9 172.2,210.7 167,198.1 167.1,197.7 			"/>
			<path d="M159.2,180.1C159.2,180.1,159.2,180.1,159.2,180.1l-1.1,0.3c-0.4,0.1-0.9,0.2-0.9,0.2c-0.2,0-0.3,0.2-0.3,0.4
				c0,0.2,0.2,0.3,0.4,0.3c0,0,0.1,0,0.1,0l1.9-0.5c0.2,0,0.3-0.2,0.3-0.4C159.6,180.2,159.4,180.1,159.2,180.1L159.2,180.1z
				 M155.5,181C155.5,181,155.4,181,155.5,181l-1.1,0.3c0,0,0,0,0,0l0,0c-0.4,0.1-0.8,0.2-0.8,0.2c-0.2,0-0.3,0.2-0.3,0.4
				c0,0.2,0.2,0.3,0.4,0.3c0,0,0.1,0,0.1,0l1.9-0.5c0.2,0,0.3-0.2,0.3-0.4C155.8,181.1,155.6,181,155.5,181L155.5,181z M151.7,181.9
				C151.7,181.9,151.7,181.9,151.7,181.9l-2,0.5c-0.2,0-0.3,0.2-0.3,0.4c0,0.2,0.2,0.3,0.4,0.3c0,0,0.1,0,0.1,0l1.9-0.5
				c0.2,0,0.3-0.2,0.3-0.4C152,182,151.9,181.9,151.7,181.9L151.7,181.9z M148,182.8C147.9,182.8,147.9,182.8,148,182.8
				c-0.1,0-1.1,0.3-1.7,0.4l0,0c0,0,0,0,0,0l-0.3,0.1c-0.2,0-0.3,0.2-0.3,0.4c0,0.2,0.2,0.3,0.4,0.3c0,0,0.1,0,0.1,0l1.9-0.5
				c0.2,0,0.3-0.2,0.3-0.4C148.3,182.9,148.1,182.8,148,182.8L148,182.8z M144.2,183.7C144.2,183.7,144.2,183.7,144.2,183.7
				c-0.1,0-0.3,0.1-0.7,0.2l0,0c0,0,0,0,0,0l0,0c0,0,0,0,0,0l-1.3,0.3c-0.2,0-0.3,0.2-0.3,0.4c0,0.2,0.2,0.3,0.4,0.3
				c0,0,0.1,0,0.1,0l1.9-0.5c0.2,0,0.3-0.2,0.3-0.4C144.5,183.8,144.4,183.7,144.2,183.7L144.2,183.7z M140.5,184.6
				C140.4,184.6,140.4,184.6,140.5,184.6l-2,0.5c-0.2,0-0.3,0.2-0.3,0.4c0,0.2,0.2,0.3,0.4,0.3c0,0,0.1,0,0.1,0l1.9-0.5
				c0.2,0,0.3-0.2,0.3-0.4C140.8,184.7,140.6,184.6,140.5,184.6L140.5,184.6z M136.7,185.5C136.7,185.5,136.7,185.5,136.7,185.5
				l-0.6,0.1c0,0,0,0,0,0l0,0c0,0,0,0,0,0l0,0c0,0,0,0,0,0l0,0c0,0,0,0,0,0l0,0c-0.6,0.1-1.4,0.3-1.4,0.3c-0.1,0-0.2,0.1-0.2,0.2
				l0.5,0.5l1.8-0.4c0.2,0,0.3-0.2,0.3-0.4C137,185.7,136.9,185.5,136.7,185.5L136.7,185.5z M135.8,186.6c-0.1,0-0.2,0-0.3,0.1
				c-0.1,0.1-0.1,0.4,0,0.5c0,0,1,1,1.3,1.3l0,0c0,0,0,0,0,0l0,0c0,0,0,0,0,0l0,0c0,0,0,0,0,0l0,0c0,0,0,0,0,0l0,0c0,0,0,0,0,0l0,0
				c0,0,0,0,0,0l0,0c0,0,0,0,0,0l0,0c0.1,0.1,0.2,0.1,0.3,0.1c0.1,0,0.2,0,0.3-0.1c0.1-0.1,0.1-0.4,0-0.5l-1.4-1.3
				C136,186.6,135.9,186.6,135.8,186.6L135.8,186.6z M138.6,189.3c-0.1,0-0.2,0-0.3,0.1c-0.1,0.1-0.1,0.4,0,0.5l1.4,1.3
				c0.1,0.1,0.2,0.1,0.3,0.1c0.1,0,0.2,0,0.3-0.1c0.1-0.1,0.1-0.4,0-0.5l-1.4-1.3C138.8,189.3,138.7,189.3,138.6,189.3L138.6,189.3z
				 M141.3,192c-0.1,0-0.2,0-0.3,0.1c-0.1,0.1-0.1,0.4,0,0.5l1.4,1.3c0.1,0.1,0.2,0.1,0.3,0.1c0.1,0,0.2,0,0.3-0.1
				c0.1-0.1,0.1-0.4,0-0.5l-1.4-1.3C141.5,192,141.4,192,141.3,192L141.3,192z M144.1,194.7c-0.1,0-0.2,0-0.3,0.1
				c-0.1,0.1-0.1,0.4,0,0.5l1.4,1.4c0.1,0.1,0.2,0.1,0.3,0.1c0.1,0,0.2,0,0.3-0.1c0.1-0.1,0.1-0.4,0-0.5l-1.4-1.3
				C144.3,194.7,144.2,194.7,144.1,194.7L144.1,194.7z M146.9,197.4c-0.1,0-0.2,0-0.3,0.1c-0.1,0.1-0.1,0.4,0,0.5
				c0,0,0.1,0.1,0.1,0.1l0,0c0,0,0,0,0,0l0,0c0,0,0,0,0,0l0,0l0,0l0,0l0,0l0,0c0,0,0,0,0,0l0,0c0,0,0,0,0,0l0,0c0,0,0,0,0,0l0,0
				c0,0,0,0,0,0l0,0c0,0,0,0,0,0l0,0c0,0,0,0,0,0l0,0c0,0,0,0,0,0l0,0c0,0,0,0,0,0l0,0c0.2,0.1,1.5,1,1.5,1c0.1,0,0.1,0.1,0.2,0.1
				c0.1,0,0.2-0.1,0.3-0.2c0.1-0.2,0.1-0.4-0.1-0.5l-1.5-0.9l0,0C147.1,197.4,147,197.4,146.9,197.4L146.9,197.4z M150,199.4
				c-0.1,0-0.2,0.1-0.3,0.2c-0.1,0.2-0.1,0.4,0.1,0.5c0,0,0.4,0.2,0.7,0.5l0,0c0,0,0,0,0,0l0.9,0.6c0.1,0,0.1,0.1,0.2,0.1
				c0.1,0,0.2-0.1,0.3-0.2c0.1-0.2,0.1-0.4-0.1-0.5l-1.6-1C150.2,199.5,150.1,199.4,150,199.4L150,199.4z M153.3,201.5
				c-0.1,0-0.2,0.1-0.3,0.2c-0.1,0.2-0.1,0.4,0.1,0.5l1,0.6c0,0,0,0,0,0l0,0c0,0,0,0,0,0l0,0c0,0,0,0,0,0l0,0c0,0,0,0,0,0v0.7l0,0
				l0,0l0,0c-0.1,0.2-0.1,0.4,0.1,0.5c0.1,0.1,0.1,0.1,0.2,0.1c0.1,0,0.2,0,0.3-0.1c0.1-0.1,0.2-0.3,0.2-0.5v-0.7
				c0-0.2-0.1-0.5-0.3-0.6l-1-0.6C153.4,201.6,153.4,201.5,153.3,201.5L153.3,201.5z M153.1,205c-0.1,0-0.2,0-0.3,0.1l-1.2,1.5
				c-0.1,0.2-0.1,0.4,0.1,0.5c0.1,0.1,0.1,0.1,0.2,0.1c0.1,0,0.2,0,0.3-0.1l1.2-1.5c0.1-0.2,0.1-0.4-0.1-0.5
				C153.3,205,153.2,205,153.1,205L153.1,205z M150.9,207.5l-0.4,0.5c0,0,0,0,0,0l1,1.2c0,0,0,0,0,0l0,0c0.1,0.2,0.2,0.3,0.2,0.3
				c0.1,0.1,0.2,0.1,0.3,0.1c0.1,0,0.2,0,0.2-0.1c0.2-0.1,0.2-0.4,0-0.5l-1.2-1.5C151,207.6,151,207.6,150.9,207.5L150.9,207.5z
				 M153.3,210.5c-0.1,0-0.2,0-0.2,0.1c-0.2,0.1-0.2,0.4,0,0.5l0.4,0.5c0,0,0,0,0,0l0,0c0,0,0,0,0,0l0,0l0,0l0,0c0,0,0,0,0,0l0,0
				c0,0,0,0,0,0.1l0,0c0,0,0,0.1,0,0.1l0,0c0,0,0,0.1,0,0.1l0,0c0,0,0,0.1,0,0.1l0,0c0,0,0,0.1,0,0.1l0,0c0,0,0,0,0,0.1l0,0
				c0,0,0,0,0,0l0,0l0,0l-0.6,0.5c-0.2,0.1-0.2,0.4,0,0.5c0.1,0.1,0.2,0.1,0.3,0.1c0.1,0,0.2,0,0.2-0.1l0.6-0.5
				c0.1-0.1,0.2-0.2,0.2-0.4l0.1-0.6c0.1-0.2,0-0.5-0.1-0.6l-0.4-0.5C153.5,210.5,153.4,210.5,153.3,210.5L153.3,210.5z
				 M151.4,213.8c-0.1,0-0.2,0-0.2,0.1l-0.7,0.6c0,0,0,0,0,0l0,0l0,0l0,0c0,0,0,0,0,0l0,0c0,0,0,0,0,0l0,0c0,0,0,0,0,0l0,0
				c0,0,0,0,0,0l0,0c0,0,0,0,0,0l0,0c0,0,0,0,0,0l0,0c0,0,0,0,0,0l0,0c0,0,0,0,0,0l0,0c0,0,0,0,0,0l0,0l0,0l0,0l0,0l0,0l0,0l0,0l0,0
				l0,0l0,0l0,0l0,0l0,0l0,0l0.6,0.8c0.1,0.1,0.2,0.2,0.3,0.2c0.1,0,0.2,0,0.2-0.1c0.2-0.1,0.2-0.3,0.1-0.5l-0.2-0.3l0.2-0.2
				c0.2-0.1,0.2-0.4,0-0.5C151.6,213.8,151.5,213.8,151.4,213.8L151.4,213.8z M152.5,216.2c-0.1,0-0.2,0-0.2,0.1
				c-0.2,0.1-0.2,0.3-0.1,0.5c0,0,0.4,0.5,0.7,0.9l0,0c0,0,0,0,0,0l0,0c0,0,0,0,0,0l0.5,0.6c0.1,0.1,0.2,0.1,0.3,0.1
				c0.1,0,0.2,0,0.2-0.1c0.2-0.1,0.2-0.3,0.1-0.5l-1.1-1.6C152.7,216.3,152.6,216.2,152.5,216.2L152.5,216.2z M154.8,219.3
				c-0.1,0-0.2,0-0.2,0.1c-0.2,0.1-0.2,0.3-0.1,0.5l1.1,1.6c0.1,0.1,0.2,0.2,0.3,0.2c0.1,0,0.2,0,0.2-0.1c0.2-0.1,0.2-0.3,0.1-0.5
				l-1.1-1.6C155,219.4,154.9,219.3,154.8,219.3L154.8,219.3z M157.3,222.1c-0.1,0-0.2,0.1-0.3,0.2c-0.1,0.2-0.1,0.4,0.1,0.5
				c0,0,0.2,0.2,0.3,0.2l0,0c0,0,0,0,0,0l0,0c0,0,0,0,0,0l0,0c0,0,0,0,0,0l0,0c0,0,0,0,0,0l0,0c0,0,0,0,0,0l0,0c0,0,0,0,0,0l0,0
				c0,0,0,0,0,0l0,0c0,0,0,0,0,0l0,0c0,0,0,0,0,0l0,0c0,0,0,0,0,0l0,0c0,0,0,0,0.1,0h0c0,0,0.1,0,0.2,0h0c0,0,0.1,0,0.1,0l0,0
				c0,0,0.1,0,0.1,0l0,0c0,0,0,0,0,0l0,0c0,0,0.1,0,0.1,0l0,0c0,0,0,0,0,0l0,0c0,0,0,0,0,0h0c0,0,0,0,0.1,0l0,0c0,0,0,0,0,0l0,0
				c0,0,0,0,0,0l0,0c0,0,0,0,0,0l0,0c0,0,0,0,0,0l0,0c0,0,0,0,0,0l0,0c0,0,0,0,0,0l0,0c0,0,0,0,0,0l0,0c0,0,0,0,0,0l0,0c0,0,0,0,0,0
				l0,0c0,0,0,0,0,0l0,0c0,0,0,0,0,0l0,0c0,0,0,0,0,0l0,0c0,0,0,0,0,0l0,0c0,0,0,0,0,0l0,0c0,0,0,0,0,0h0c0,0,0,0,0,0l0,0
				c0,0,0,0,0,0l0,0c0,0,0,0,0,0l0,0c0,0,0,0,0,0l0,0c0,0,0,0,0,0l0,0c0,0,0,0,0,0l0,0c0,0,0,0,0,0l0,0c0,0,0,0,0,0l0,0c0,0,0,0,0,0
				l0,0c0,0,0,0,0,0l0,0c0,0,0,0,0,0l0,0c0,0,0,0,0,0l0,0c0,0,0,0,0.1,0l0,0c0,0,0,0,0,0l0,0c0,0,0,0,0,0l0,0c0,0,0,0,0,0l0,0
				c0,0,0,0,0,0l0,0c0,0,0,0,0,0l0,0c0,0,0,0,0,0l0,0c0,0,0,0,0,0l0,0c0,0,0,0,0,0l0,0c0,0,0,0,0,0l0,0c0,0,0,0,0,0l0,0c0,0,0,0,0,0
				l0,0c0,0,0,0,0,0l0,0c0,0,0,0,0,0l0,0c0,0,0,0,0,0l0,0c0,0,0,0,0,0h0c0,0,0,0,0,0l0,0c0,0,0,0,0,0l0,0c0,0,0,0,0,0l0,0
				c0,0,0,0,0,0l0,0c0,0,0,0,0,0l0,0c0,0,0,0,0,0l0,0c0,0,0,0,0,0l0,0c0,0,0,0,0,0l0,0c0,0,0,0,0,0h0c0,0,0,0,0,0l0,0c0,0,0,0,0,0h0
				c0,0,0,0,0,0l0,0c0,0,0,0,0,0l0,0c0,0,0,0,0,0l0,0c0,0,0,0,0,0l0,0c0,0,0,0,0,0l0,0c0,0,0,0,0,0l0,0c0,0,0,0,0,0l0,0c0,0,0,0,0,0
				l0,0c0,0,0,0,0,0l0,0c0,0,0,0,0,0l0,0c0,0,0,0,0,0h0c0,0,0,0,0,0l0,0c0,0,0,0,0,0h0c0,0,0,0,0,0l0,0c0,0,0,0,0,0l0,0c0,0,0,0,0,0
				l0,0c0,0,0,0,0,0l0,0c0,0,0,0,0,0l0,0c0,0,0,0,0,0l0,0c0,0,0,0,0,0h0c0,0,0,0,0,0l0,0c0,0,0,0,0,0h0c0,0,0,0,0,0l0,0c0,0,0,0,0,0
				l0,0c0,0,0,0,0,0l0,0c0,0,0,0,0,0l0,0c0,0,0,0,0,0l0,0c0,0,0,0,0,0h0c0,0,0,0,0,0h0c0,0,0,0,0,0l0,0c0,0,0,0,0,0h0c0,0,0,0,0,0h0
				h0l0,0c0.2,0,0.4-0.2,0.4-0.4c0-0.2-0.2-0.4-0.4-0.4c0,0,0,0,0,0l-1.3,0l-0.1-0.1C157.4,222.1,157.4,222.1,157.3,222.1
				L157.3,222.1z M162.8,222.1C162.8,222.1,162.8,222.1,162.8,222.1l-1.9,0c-0.2,0-0.4,0.2-0.4,0.4c0,0.2,0.2,0.4,0.4,0.4
				c0,0,0,0,0,0c0,0,0.5,0,1,0l0,0c0,0,0,0,0,0l0.9,0c0.2,0,0.4-0.2,0.4-0.4C163.2,222.3,163,222.1,162.8,222.1L162.8,222.1z
				 M166.7,222C166.7,222,166.6,222,166.7,222l-1.9,0c-0.2,0-0.4,0.2-0.4,0.4c0,0.2,0.2,0.4,0.4,0.4c0,0,0,0,0,0l1.9,0
				c0.2,0,0.4-0.2,0.4-0.4C167,222.2,166.9,222,166.7,222L166.7,222z M169,221.9C169,221.9,169,221.9,169,221.9l-0.4,0
				c-0.2,0-0.4,0.2-0.4,0.4c0,0.2,0.2,0.4,0.4,0.4c0,0,0,0,0,0l0.4,0c0,0,0,0,0,0l0,0c0,0,0,0,0,0h0c0,0,0,0,0,0h0c0,0,0,0,0,0
				s0,0,0,0l0,0c0,0,0,0,0,0l0,0c0,0,0,0,0,0l0,0c0,0,0,0,0,0l0,0c0,0,0,0,0,0l0,0c0,0,0,0,0,0l0,0c0,0,0,0,0,0l0,0c0,0,0,0,0,0l0,0
				c0,0,0,0,0,0l0,0c0,0,0,0,0,0l0,0c0,0,0,0,0,0l0,0c0,0,0,0,0,0l0,0c0,0,0,0,0,0l0,0c0,0,0,0,0,0l0,0c0,0,0,0,0,0l0,0c0,0,0,0,0,0
				l0,0c0,0,0,0,0,0l0,0c0,0,0,0,0,0l0,0c0,0,0,0,0,0l0,0c0,0,0,0,0,0l0,0c0,0,0,0,0,0l0,0c0,0,0,0,0,0v0c0,0,0,0,0,0l0,0l0,0l0,0
				c0,0,0,0,0,0l0,0c0,0,0,0,0,0l0,0c0,0,0,0,0,0l0,0c0,0,0,0,0,0l0,0c0,0,0,0,0,0l0,0c0,0,0,0,0,0l0,0c0,0,0,0,0,0l0,0c0,0,0,0,0,0
				l0,0c0,0,0,0,0,0l0,0c0,0,0,0,0,0l0,0c0,0,0,0,0,0l0,0c0,0,0,0,0,0l0,0c0,0,0,0,0,0l0,0c0,0,0,0,0,0l0,0c0,0,0,0,0,0l0,0
				c0,0,0,0,0,0l0,0c0,0,0,0,0,0l0,0c0,0,0,0,0,0l0,0c0,0,0,0,0,0l0,0c0,0,0,0,0,0l0,0c0,0,0,0,0,0l0,0c0,0,0,0,0,0l0,0c0,0,0,0,0,0
				l0,0c0,0,0,0,0,0l0,0c0,0,0,0,0,0l0,0c0,0,0,0,0,0l0,0c0,0,0,0,0,0l0,0c0,0,0,0,0,0l0,0c0,0,0,0,0,0l0,0c0,0,0,0,0,0l0,0
				c0,0,0,0,0,0l0,0c0,0,0,0,0,0l0,0c0,0,0,0,0,0l0,0c0,0,0,0,0,0l0,0c0,0,0,0,0,0l0,0c0,0,0,0,0,0l0,0l0,0l0,0l0.2,1
				c0,0.2,0.2,0.3,0.4,0.3c0,0,0.1,0,0.1,0c0.2,0,0.3-0.2,0.3-0.4l-0.2-1c0-0.2-0.2-0.3-0.3-0.4l-0.4-0.3
				C169.3,222,169.1,221.9,169,221.9L169,221.9z M170,225.7c-0.1,0-0.1,0-0.2,0.1c0,0-0.4,0.3-0.7,0.5l0,0c0,0,0,0,0,0l0,0
				c0,0,0,0,0,0l0,0c0,0,0,0,0,0l0,0c0,0,0,0,0,0l0,0c0,0,0,0,0,0l0,0c0,0,0,0,0,0l0,0c0,0,0,0,0,0l0,0c0,0,0,0,0,0l0,0c0,0,0,0,0,0
				l0,0c0,0,0,0,0,0l0,0c0,0,0,0,0,0l0,0c0,0,0,0,0,0l0,0c0,0,0,0,0,0l0,0c0,0,0,0,0,0l0,0c0,0,0,0,0,0l0,0c0,0,0,0,0,0l0,0
				c0,0,0,0,0,0l0,0c0,0,0,0,0,0l0,0c0,0,0,0,0,0l0,0c0,0,0,0,0,0l0,0c0,0,0,0,0,0l0,0c0,0,0,0,0,0l0,0c0,0,0,0,0,0l0,0c0,0,0,0,0,0
				l0,0c0,0,0,0,0,0l0,0c0,0,0,0,0,0l0,0c0,0,0,0,0,0l0,0h-0.1l0,0c0,0,0,0,0,0l0,0c0,0,0,0,0,0l0,0c0,0,0,0,0,0l0,0c0,0,0,0,0,0
				l0,0c0,0,0,0,0,0h0c-0.1,0-0.6,0.1-0.6,0.1c-0.2,0-0.3,0.2-0.3,0.4c0,0.2,0.2,0.3,0.4,0.3c0,0,0,0,0.1,0l0.6-0.1h0.1
				c0.2,0,0.3,0,0.4-0.1l0.9-0.7c0.2-0.1,0.2-0.3,0.1-0.5C170.2,225.8,170.1,225.7,170,225.7L170,225.7z M166.9,226.8l-0.6,0.1
				c0,0,0,0.1,0,0.1c0,0-0.1,1.5-0.2,1.9l0,0c0,0,0,0,0,0v0c0,0,0,0,0,0l0,0c0,0,0,0,0,0l0,0c0,0,0,0,0,0l0,0c0,0,0,0,0,0l0,0
				c0,0,0,0,0,0l0,0c0,0,0,0,0,0v0c0,0,0,0,0,0l0,0c0,0,0,0,0,0l0,0c0,0,0,0,0,0l0,0c0,0,0,0,0,0l0,0c0,0,0,0,0,0l0,0c0,0,0,0,0,0
				l0,0c0,0,0,0,0,0l0,0c0,0,0,0,0,0l0,0c0,0,0,0,0,0l0,0c0,0,0,0,0,0l0,0c0,0,0,0,0,0l0,0c0,0,0,0,0,0l0,0c0,0,0,0,0,0l0,0
				c0,0,0,0,0,0l0,0c0,0,0,0,0,0l0,0c0,0,0,0,0,0l0,0c0,0,0,0,0,0c0,0.2,0.1,0.4,0.3,0.4c0,0,0,0,0,0c0.2,0,0.3-0.1,0.4-0.3l0.2-1.9
				C167,226.9,166.9,226.8,166.9,226.8L166.9,226.8z M166.3,230.5c-0.2,0-0.3,0.1-0.4,0.3l-0.1,1.3l0,0l0,0l0,0c0,0,0,0,0,0l0,0
				c0,0,0,0,0,0l0,0c0,0,0,0,0,0l0,0c0,0,0,0,0,0l0,0c0,0,0,0,0,0l0,0c0,0,0,0,0,0l0,0c0,0,0,0,0,0l0,0c0,0,0,0,0,0l0,0
				c0,0.1,0.2,0.6,0.2,0.6c0.1,0.2,0.2,0.2,0.3,0.2c0,0,0.1,0,0.1,0c0.2-0.1,0.3-0.3,0.2-0.5l-0.2-0.5l0.1-1.1
				C166.6,230.7,166.5,230.5,166.3,230.5C166.3,230.5,166.3,230.5,166.3,230.5L166.3,230.5z M166.7,233.8l0,0.4c0,0.1-0.1,0.2,0,0.3
				l0,0l0,0l0,0l0,0l0,0l0,0l0,0l0,0l0,0l0,0c0,0,0,0,0,0l0,0c0,0,0,0,0,0l0,0c0,0,0,0,0,0h0c0,0,0,0,0,0l0,0c0,0,0,0,0,0l0,0
				c0,0,0,0,0,0l0,0c0,0,0,0,0,0l1.8,0.1c0,0,0,0,0,0c0.2,0,0.4-0.1,0.4-0.3c0-0.2-0.1-0.4-0.3-0.4L166.7,233.8L166.7,233.8z
				 M170.5,234.1c-0.2,0-0.4,0.1-0.4,0.3c0,0.2,0.1,0.4,0.3,0.4l0.3,0l0,0l0,0c0,0,0,0,0,0l0,0c0,0,0,0,0,0l0,0c0,0,0,0,0,0l0,0
				c0,0,0,0,0,0l0,0c0,0,0,0,0,0l0,0c0,0,0,0,0,0l0,0c0,0,0,0,0,0l0,0c0,0,0,0,0,0l0,0c0,0,0,0,0,0l0,0c0,0,0,0,0,0l0,0c0,0,0,0,0,0
				l0,0c0,0,0,0,0,0l0,0c0,0,0,0,0,0l0,0c0,0,0,0,0,0l0,0c0,0,0,0,0,0l0,0c0,0,0,0,0,0l0,0c0,0,0,0,0,0l0,0c0,0,0,0,0,0l0,0
				c0,0,0,0,0,0l0,0c0,0,0,0,0,0l0,0c0,0,0,0,0,0l0,0c0,0,0,0,0,0l0,0c0,0,0,0,0,0l0,0c0,0,0,0,0,0l0,0c0,0,0,0,0,0l0,0c0,0,0,0,0,0
				l0,0c0,0,0,0,0,0l0,0c0,0,0,0,0,0l0,0c0,0,0,0,0,0l0,0c0,0,0,0,0,0l0,0c0,0,0,0,0,0l0,0c0,0,0,0,0,0l0,0c0,0,0,0,0,0l0,0
				c0,0,0,0,0,0l0,0c0,0,0,0,0,0l0,0c0,0,0,0,0,0l0,0c0,0,0,0,0,0l0,0c0,0,0,0,0,0l0,0c0,0,0,0,0,0l0,0c0,0,0,0,0,0l0,0c0,0,0,0,0,0
				l0,0c0,0,0,0,0,0l0,0c0,0,0,0,0,0l0,0c0,0,0,0,0,0l0,0c0,0,0,0,0,0l0,0c0,0,0,0,0,0l0,0c0,0,0,0,0,0l0,0c0,0,0,0,0,0l0,0
				c0,0,0,0,0,0l0,0c0,0,0,0,0,0l0,0c0,0,0,0,0,0l0,0c0,0,0,0,0,0l0,0c0,0,0,0,0,0l0,0c0,0,0,0,0,0l0,0c0,0,0,0,0,0l0,0c0,0,0,0,0,0
				l0,0c0,0,0,0,0,0l0,0c0,0,0,0,0,0l0,0c0,0,0,0,0,0l0,0c0,0,0,0,0,0l0,0c0,0,0,0,0,0l0,0c0,0,0,0,0,0l0,0c0,0,0,0,0,0l0,0
				c0,0,0,0,0,0l0,0c0,0,0,0,0,0l0,0c0,0,0,0,0,0l0,0c0,0,0,0,0,0l0,0c0,0,0,0,0,0l0,0c0,0,0,0,0,0l0,0c0,0,0,0,0,0l0,0c0,0,0,0,0,0
				l0,0c0,0,0,0,0,0l0,0c0,0,0,0,0,0l0,0c0,0,0,0,0,0l0,0c0,0,0,0,0,0l0,0c0,0,0,0,0,0l0,0c0,0,0,0,0,0l0,0c0,0,0,0,0,0l0,0
				c0,0,0,0,0,0l0,0c0,0,0,0,0,0l0,0c0,0,0,0,0,0l0,0c0,0,0,0,0,0l0,0l0,0l0,0c0,0,0,0,0,0l0,0c0,0,0,0,0,0l0,0c0,0,0,0,0,0l0,0
				c0,0,0,0,0,0l0,0c0,0,0,0,0,0l0,0c0,0,0,0,0,0l0,0c0,0.2-0.1,0.9-0.1,0.9c0,0.2,0.1,0.4,0.3,0.4c0,0,0,0,0.1,0
				c0.2,0,0.3-0.1,0.4-0.3l0.1-1c0-0.2,0-0.5-0.2-0.6l-0.4-0.4c-0.1-0.1-0.3-0.2-0.5-0.2L170.5,234.1
				C170.6,234.1,170.5,234.1,170.5,234.1L170.5,234.1z M171.2,237.8c-0.2,0-0.3,0.1-0.4,0.3l-0.2,1c0,0,0,0,0,0l0,0c0,0,0,0,0,0l0,0
				c0,0,0,0,0,0l0,0c0,0,0,0,0,0l0,0c0,0,0,0,0,0l0,0c-0.1,0.4-0.1,0.8-0.1,0.8c0,0.2,0.1,0.4,0.3,0.4c0,0,0,0,0.1,0
				c0.2,0,0.3-0.1,0.4-0.3l0.3-1.9C171.6,238,171.5,237.8,171.2,237.8C171.3,237.8,171.2,237.8,171.2,237.8L171.2,237.8z
				 M170.7,241.6c-0.2,0-0.3,0.1-0.4,0.3l0,0.2l-0.4,0.4l-1.1,0c0,0,0,0,0,0c-0.2,0-0.4,0.2-0.4,0.4c0,0.2,0.2,0.4,0.4,0.4l1.1,0
				c0,0,0,0,0,0c0.2,0,0.4-0.1,0.5-0.2l0.4-0.4c0.1-0.1,0.2-0.3,0.2-0.4l0-0.2C171.1,241.9,170.9,241.7,170.7,241.6
				C170.7,241.6,170.7,241.6,170.7,241.6L170.7,241.6z M167.2,242.6c-0.1,0-0.2,0.1-0.2,0.2l-0.4,1.9c0,0.2,0.1,0.4,0.3,0.4
				c0,0,0.1,0,0.1,0c0.2,0,0.3-0.1,0.4-0.3l0.4-1.9c0-0.2,0-0.3-0.2-0.4L167.2,242.6L167.2,242.6z M166.4,246l-0.2,0.5
				c0,0,0,0.1,0,0.1c0,0,0,0.1,0,0.1l0,0c0,0,0,0,0,0l0,0c0,0,0,0,0,0l0,0c0,0,0,0,0,0l0,0l0,0l0,0l0,0c0,0,0,0,0,0l0,0c0,0,0,0,0,0
				l0,0c0,0,0,0,0,0l0,0c0,0,0,0,0,0l0,0c0,0,0,0,0,0l0,0c0,0,0,0,0,0l0,0c0,0,0,0,0,0l0,0c0,0,0,0,0,0l0,0c0,0,0,0,0,0l0,0
				c0,0,0,0,0,0l0,0c0,0,0,0,0,0l0,0c0,0,0,0,0,0l0,0c0,0,0,0,0,0l0,0c0,0,0,0,0,0l1.6,0.5c0,0,0.1,0,0.1,0c0.2,0,0.3-0.1,0.4-0.3
				c0.1-0.2-0.1-0.4-0.2-0.5L166.4,246L166.4,246z M171.2,245.5c-0.1,0-0.1,0-0.2,0.1l-1.6,1c-0.2,0.1-0.2,0.3-0.1,0.5
				c0.1,0.1,0.2,0.2,0.3,0.2c0.1,0,0.1,0,0.2-0.1l1.6-1c0.2-0.1,0.2-0.3,0.1-0.5C171.4,245.5,171.3,245.5,171.2,245.5L171.2,245.5z
				 M173.2,246.4c-0.1,0-0.2,0-0.3,0.1c-0.1,0.1-0.1,0.4,0,0.5c0,0,0.1,0.1,0.3,0.3l0,0l0.5,0.5l0,0l0,0l0,0l0,0l0,0l0,0l0,0
				l0.4-0.6l0,0c0.1-0.2,0-0.4-0.1-0.5c-0.1,0-0.1-0.1-0.2-0.1c-0.1,0-0.1,0-0.2,0l-0.2-0.2C173.4,246.4,173.3,246.4,173.2,246.4
				L173.2,246.4z M175.5,243.4c-0.2,0-0.3,0.1-0.4,0.3l-0.1,0.6l-0.6,0.9c-0.1,0.2-0.1,0.4,0.1,0.5c0.1,0,0.1,0.1,0.2,0.1
				c0.1,0,0.2-0.1,0.3-0.2l0.6-0.9c0,0,0,0,0,0l0,0l0,0l0,0c0,0,0,0,0,0l0,0c0,0,0,0,0,0l0,0c0,0,0,0,0,0l0,0c0,0,0,0,0,0l0,0
				c0,0,0,0,0,0l0,0c0,0,0,0,0,0l0,0c0,0,0,0,0,0l0,0c0,0,0,0,0,0l0,0c0,0,0,0,0,0l0,0c0,0,0,0,0,0l0,0c0,0,0,0,0,0l0,0c0,0,0,0,0,0
				l0,0c0,0,0,0,0,0l0,0c0,0,0,0,0,0l0,0c0,0,0,0,0,0l0,0c0,0,0,0,0,0l0,0c0,0,0,0,0,0l0,0c0,0,0,0,0,0l0,0c0,0,0,0,0,0l0,0l0,0l0,0
				l0,0l0,0l0,0l0,0l0,0l0,0l0,0l0.1-0.7C175.9,243.6,175.8,243.4,175.5,243.4C175.6,243.4,175.6,243.4,175.5,243.4L175.5,243.4z
				 M176.1,239.7C176.1,239.7,176.1,239.7,176.1,239.7c-0.2,0-0.4,0.2-0.4,0.4l0,0.2l-0.3,1.5c0,0.2,0.1,0.4,0.3,0.4c0,0,0,0,0.1,0
				c0.2,0,0.3-0.1,0.4-0.3l0.3-1.6l0,0l0,0l0,0l0,0l0,0l0,0l0,0l0,0l0,0l0,0l0,0l0,0l0,0l0,0l0-0.3
				C176.4,239.8,176.3,239.7,176.1,239.7L176.1,239.7z M175.6,235.8C175.6,235.8,175.6,235.8,175.6,235.8c-0.2,0-0.4,0.2-0.4,0.4
				l0.2,1.9c0,0.2,0.2,0.3,0.4,0.3c0,0,0,0,0,0c0.2,0,0.3-0.2,0.3-0.4l-0.2-1.6c0,0,0,0,0,0l0,0c0,0,0,0,0,0l0,0c0,0,0,0,0,0l0,0
				c0,0,0,0,0,0l0,0c0,0,0,0,0,0l0,0c0,0,0,0,0,0l0,0c0-0.1,0-0.2,0-0.2C176,236,175.8,235.8,175.6,235.8L175.6,235.8z M175.2,232
				C175.2,232,175.1,232,175.2,232c-0.2,0-0.4,0.2-0.4,0.4l0.2,1.9c0,0.2,0.2,0.3,0.4,0.3c0,0,0,0,0,0c0.2,0,0.3-0.2,0.3-0.4
				c0,0-0.1-1.1-0.2-1.6l0,0c0,0,0,0,0,0l0,0c0,0,0,0,0,0l0,0c0,0,0,0,0,0l0-0.3C175.5,232.1,175.4,232,175.2,232L175.2,232z
				 M174.7,228.2C174.7,228.2,174.7,228.2,174.7,228.2c-0.2,0-0.4,0.2-0.4,0.4l0.2,1.9c0,0.2,0.2,0.3,0.4,0.3c0,0,0,0,0,0
				c0.2,0,0.3-0.2,0.3-0.4c0,0-0.1-0.7-0.1-1.2l0,0c0,0,0,0,0,0l0,0c0,0,0,0,0,0l-0.1-0.7C175.1,228.3,174.9,228.2,174.7,228.2
				L174.7,228.2z M174.3,224.3C174.2,224.3,174.2,224.3,174.3,224.3c-0.2,0-0.4,0.2-0.4,0.4l0.2,1.9c0,0.2,0.2,0.3,0.4,0.3
				c0,0,0,0,0,0c0.2,0,0.3-0.2,0.3-0.4c0,0,0-0.3-0.1-0.7l0,0c0,0,0,0,0,0l-0.1-1.2C174.6,224.5,174.4,224.3,174.3,224.3
				L174.3,224.3z M173.8,220.5C173.8,220.5,173.8,220.5,173.8,220.5c-0.2,0-0.4,0.2-0.4,0.4l0.2,1.9c0,0.2,0.2,0.3,0.4,0.3
				c0,0,0,0,0,0c0.2,0,0.3-0.2,0.3-0.4l0-0.1c0,0,0,0,0,0l0,0c0,0,0,0,0,0l0,0c0,0,0,0,0,0l0,0c0,0,0,0,0,0l0,0
				c-0.1-0.5-0.2-1.7-0.2-1.7C174.1,220.6,174,220.5,173.8,220.5L173.8,220.5z M173.3,216.7C173.3,216.7,173.3,216.7,173.3,216.7
				c-0.2,0-0.4,0.2-0.4,0.4l0.2,1.9c0,0.2,0.2,0.3,0.4,0.3c0,0,0,0,0,0c0.2,0,0.3-0.2,0.3-0.4l-0.1-0.8c0,0,0,0,0,0l0,0c0,0,0,0,0,0
				l0,0c-0.1-0.5-0.1-1.1-0.1-1.1C173.7,216.8,173.5,216.7,173.3,216.7L173.3,216.7z M172.6,212.9c0,0-0.1,0-0.1,0
				c-0.2,0.1-0.3,0.3-0.2,0.5l0.5,1.6l0,0.1c0,0.2,0.2,0.3,0.4,0.3c0,0,0,0,0,0c0.2,0,0.3-0.2,0.3-0.4l0-0.2c0,0,0,0,0,0l0,0
				c0,0,0,0,0,0l0,0c0,0,0,0,0,0l0,0c0,0,0,0,0,0l0,0c0,0,0,0,0,0v0c0,0,0,0,0,0l0,0c0,0,0,0,0,0l0,0c0,0,0,0,0,0l0,0l0,0l0,0l0,0
				l0,0l0,0l0,0l0,0l0,0l0,0l0,0l0,0l0,0l-0.5-1.7C172.9,213,172.7,212.9,172.6,212.9L172.6,212.9z M171.4,209.3c0,0-0.1,0-0.1,0
				c-0.2,0.1-0.3,0.3-0.2,0.5l0.5,1.1l0.2,0.7c0,0.2,0.2,0.3,0.3,0.3c0,0,0.1,0,0.1,0c0.2-0.1,0.3-0.3,0.2-0.5l-0.2-0.7l0,0l0,0l0,0
				l0,0l0,0l0,0l0,0l0,0l0,0l0,0l0,0l0,0l0,0l-0.5-1.1C171.6,209.4,171.5,209.3,171.4,209.3L171.4,209.3z M169.9,205.8
				c0,0-0.1,0-0.1,0c-0.2,0.1-0.3,0.3-0.2,0.5l0.7,1.8c0.1,0.1,0.2,0.2,0.3,0.2c0,0,0.1,0,0.1,0c0.2-0.1,0.3-0.3,0.2-0.5l-0.7-1.8
				C170.2,205.8,170,205.8,169.9,205.8L169.9,205.8z M168.4,202.2c0,0-0.1,0-0.1,0c-0.2,0.1-0.3,0.3-0.2,0.5l0.7,1.8
				c0.1,0.1,0.2,0.2,0.3,0.2c0,0,0.1,0,0.1,0c0.2-0.1,0.3-0.3,0.2-0.5c0,0-0.2-0.5-0.4-1l0,0c0,0,0,0,0,0l0,0c0,0,0,0,0,0l0,0
				c0,0,0,0,0,0l-0.3-0.8C168.7,202.3,168.5,202.2,168.4,202.2L168.4,202.2z M166.9,198.6c0,0-0.1,0-0.1,0c-0.2,0.1-0.3,0.3-0.2,0.5
				l0.7,1.8c0.1,0.1,0.2,0.2,0.3,0.2c0,0,0.1,0,0.1,0c0.2-0.1,0.3-0.3,0.2-0.5l-0.5-1.2c0,0,0,0,0,0l0,0c-0.1-0.3-0.2-0.5-0.2-0.5
				C167.2,198.7,167.1,198.6,166.9,198.6L166.9,198.6z M169,195.5c-0.1,0-0.2,0-0.2,0.1l-1.6,1.1c-0.2,0.1-0.2,0.3-0.1,0.5
				c0.1,0.1,0.2,0.1,0.3,0.1c0.1,0,0.2,0,0.2-0.1l1.6-1.1c0.2-0.1,0.2-0.3,0.1-0.5C169.2,195.5,169.1,195.5,169,195.5L169,195.5z
				 M169.1,192.9c-0.1,0-0.1,0-0.2,0c-0.2,0.1-0.3,0.3-0.2,0.5l0.8,1.7c0.1,0.1,0.2,0.2,0.3,0.2c0.1,0,0.1,0,0.2,0
				c0.2-0.1,0.3-0.3,0.2-0.5l-0.5-1c-0.2-0.4-0.4-0.8-0.4-0.8C169.4,193,169.2,192.9,169.1,192.9L169.1,192.9z M167.5,189.4
				c-0.1,0-0.1,0-0.2,0c-0.2,0.1-0.3,0.3-0.2,0.5l0.8,1.7c0.1,0.1,0.2,0.2,0.3,0.2c0.1,0,0.1,0,0.2,0c0.2-0.1,0.3-0.3,0.2-0.5
				c0,0-0.3-0.7-0.6-1.2l0,0c0,0,0,0,0,0l0,0c0,0,0,0,0,0l0,0c0,0,0,0,0,0l0,0l0,0l0,0c0,0,0,0,0,0l0,0c0,0,0,0,0,0l-0.2-0.5
				C167.7,189.5,167.6,189.4,167.5,189.4L167.5,189.4z M165.8,185.9c-0.1,0-0.1,0-0.2,0c-0.2,0.1-0.3,0.3-0.2,0.5l0.8,1.7
				c0.1,0.1,0.2,0.2,0.3,0.2c0.1,0,0.1,0,0.2,0c0.2-0.1,0.3-0.3,0.2-0.5c0,0-0.1-0.1-0.2-0.3l0,0c0,0,0,0,0,0l0,0c0,0,0,0,0,0l0,0
				c0,0,0,0,0,0l0,0c0,0,0,0,0,0l0,0c0,0,0,0,0,0l-0.6-1.3C166.1,186,166,185.9,165.8,185.9L165.8,185.9z M164.2,182.4
				c-0.1,0-0.1,0-0.2,0c-0.2,0.1-0.3,0.3-0.2,0.5l0.8,1.7c0.1,0.1,0.2,0.2,0.3,0.2c0.1,0,0.1,0,0.2,0c0.2-0.1,0.3-0.3,0.2-0.5
				l-0.8-1.8C164.5,182.5,164.3,182.4,164.2,182.4L164.2,182.4z M162.9,179.1l-0.7,0.2l0,0c-0.5,0.1-1.2,0.3-1.2,0.3
				c-0.2,0-0.3,0.2-0.3,0.4c0,0.2,0.2,0.3,0.4,0.3c0,0,0.1,0,0.1,0l1.3-0.3l0.5,1.2c0.1,0.1,0.2,0.2,0.3,0.2c0.1,0,0.1,0,0.2,0
				c0.2-0.1,0.3-0.3,0.2-0.5c0,0-0.3-0.6-0.5-1h0L162.9,179.1L162.9,179.1z"/>
		</g>
		<path id="PASIR_RIS-PUNGGOL_3_" class="st3" d="M306.7,133.4l-0.5,1.4l-1.6-0.8l0.6-1.3L306.7,133.4L306.7,133.4z"/>
		<g>
			<g>
				<path class="st4" d="M309,154.6"/>
			</g>
		</g>
	</g>
	<g>
		<g>
			<path class="st5" d="M116.5,211.1h41.8"/>
			<g>
				<circle class="st6" cx="161.8" cy="211.1" r="3.8"/>
				<path class="st7" d="M165.1,211.1c0,1.8-1.5,3.3-3.3,3.3s-3.3-1.5-3.3-3.3s1.5-3.3,3.3-3.3S165.1,209.2,165.1,211.1
					 M166.1,211.1c0-2.4-1.9-4.3-4.3-4.3s-4.3,1.9-4.3,4.3s1.9,4.3,4.3,4.3S166.1,213.5,166.1,211.1L166.1,211.1z"/>
			</g>
		</g>
	</g>
	<g>
		<g>
			<path class="st8" d="M293.4,77.3c-0.1-0.5-0.4-1.1-0.7-1.8v7.3h-1.6v-6.2c-0.4,1.3-0.8,2.5-1.4,3.3c-0.2-0.5-0.6-1.4-0.8-1.9
				c0.9-1.2,1.7-3.5,2.1-5.4h-1.7v-1.8h1.9v-3h1.6v3h1.5v1.8h-1.5v0.5c0.4,0.6,1.5,2.4,1.7,2.9L293.4,77.3z M299.9,74
				c0.2,0.5,0.4,1.1,0.4,1.5h3.2v1.6h-4.8c0,0.4-0.1,0.7-0.1,1.1h4.5c0,0,0,0.4,0,0.7c-0.1,2-0.3,3-0.7,3.4
				c-0.3,0.4-0.7,0.5-1.1,0.5c-0.4,0-1.1,0.1-1.8,0c0-0.5-0.2-1.2-0.5-1.6c0.6,0.1,1.2,0.1,1.4,0.1c0.2,0,0.4,0,0.5-0.1
				c0.1-0.2,0.3-0.6,0.4-1.4h-2.9c-0.5,1.4-1.4,2.4-3.2,3.2c-0.2-0.4-0.7-1.1-1.1-1.4c2.3-0.9,2.8-2.3,3-4.3h-2.1v-1.6h3.6
				c-0.1-0.4-0.2-0.8-0.3-1.2L299.9,74z M303.9,72.3v2.8h-1.8v-1.3h-5.8v1.3h-1.7v-2.8h2c-0.1-0.4-0.2-0.9-0.4-1.3l1.3-0.2h-2.6
				v-1.5h3.6c-0.1-0.4-0.2-0.9-0.3-1.2l1.8-0.2c0.2,0.4,0.3,1,0.4,1.5h3.3v1.5h-2.4l1.2,0.2c-0.2,0.5-0.4,0.9-0.6,1.3H303.9z
				 M297.8,70.8c0.2,0.5,0.4,1.1,0.5,1.5h1.9c0.2-0.5,0.3-1.1,0.4-1.5H297.8z"/>
			<path class="st8" d="M313.3,75.2c-0.5,1.4-1.2,2.7-1.9,3.8c0.2,1.1,0.4,1.7,0.7,1.7c0.2,0,0.3-0.7,0.4-1.7c0.2,0.4,0.8,0.8,1.1,1
				c-0.4,2.1-1,2.7-1.6,2.6c-0.8,0-1.4-0.8-1.8-2.2c-0.3,0.4-0.7,0.8-1.1,1.1c-0.2-0.3-0.5-0.6-0.8-0.9v0.2c0,0.8-0.1,1.2-0.6,1.5
				c-0.4,0.3-1.1,0.3-2,0.3c0-0.5-0.3-1.2-0.5-1.6c0.5,0,1,0,1.2,0c0.2,0,0.2-0.1,0.2-0.2v-2.8l-1.1,0.5l-0.6-1.7
				c0.5-0.1,1-0.3,1.7-0.5v-2.4h-1.5v-1.6h1.5v-1.8c-0.4,0.1-0.7,0.2-1,0.2c-0.1-0.4-0.3-1-0.5-1.4c1.1-0.3,2.3-0.8,3.1-1.2l1.2,1.2
				l0-1.2h1.5c0,1.5,0,2.9,0,4.2h2.2v1.6h-2.2c0,0.9,0.1,1.8,0.1,2.5c0.3-0.7,0.6-1.3,0.8-2L313.3,75.2z M308.3,72.3h1.1
				c0-0.8,0-1.8,0-2.7c-0.4,0.2-0.7,0.3-1.1,0.4V72.3z M308.3,80.3c0.6-0.5,1.1-1.1,1.6-1.8c-0.2-1.3-0.3-2.8-0.4-4.6h-1.2v1.8
				l0.8-0.3l0.3,1.5l-1.1,0.5V80.3z M311.7,71.9c-0.1-0.7-0.4-1.9-0.8-2.8l1.3-0.4c0.4,0.9,0.8,2,0.9,2.8L311.7,71.9z M319.8,75.7
				c0,0,0,0.4,0,0.7c-0.1,3.8-0.3,5.2-0.7,5.8c-0.3,0.4-0.7,0.5-1.2,0.6c-0.4,0.1-1.1,0.1-1.9,0c0-0.5-0.2-1.1-0.5-1.5
				c0.7,0.1,1.3,0.1,1.6,0.1c0.2,0,0.4,0,0.5-0.2c0.1-0.2,0.2-0.6,0.3-1.6H313v-1.4h5l0-1h-4.5v-7.8h1.5c0.1-0.5,0.2-1.1,0.3-1.5
				l1.7,0.2c-0.1,0.5-0.3,0.9-0.4,1.3h2.8c0,0,0,0.4,0,0.6c-0.1,3.2-0.2,4.4-0.5,4.8c-0.2,0.3-0.5,0.4-0.9,0.5
				c-0.3,0.1-0.9,0.1-1.4,0c0-0.4-0.2-1-0.4-1.3c0.4,0,0.8,0.1,1,0.1s0.3,0,0.4-0.2c0.1-0.2,0.2-1,0.3-3.1h-2.8v5.1H319.8z
				 M316.3,70.9c0.5,0.5,1.1,1.2,1.4,1.7l-1.2,0.9c-0.3-0.5-0.9-1.2-1.4-1.8L316.3,70.9z"/>
			<path class="st8" d="M331.2,70.6v1.7h4v10.4h-1.9v-0.9h-9.2v0.9h-1.9V72.3h3.8v-1.7h-4.6v-1.8h14.3v1.8H331.2z M333.2,80.1v-2
				h-0.1h-1.7c-1.7,0-2-0.5-2-2.4V74h-1.7c-0.1,1.7-0.7,3.4-3,4.5c-0.1-0.2-0.4-0.5-0.6-0.8v2.4H333.2z M324.1,74v2.9
				c1.5-0.8,1.8-1.8,1.9-2.9H324.1z M329.4,70.6h-1.7v1.7h1.7V70.6z M331.2,74v1.7c0,0.5,0.1,0.6,0.5,0.6h1.3c0.1,0,0.2,0,0.3,0V74
				H331.2z"/>
			<path class="st8" d="M303.7,98.9h-6.6v2.9H296v-2.9h-6.5v-1h6.5v-1.6h-5V90h3c-0.4-0.6-1-1.6-1.6-2.3l0.9-0.4
				c0.7,0.7,1.4,1.7,1.7,2.4l-0.6,0.3h3.9c0.6-0.8,1.2-1.9,1.6-2.7l1.1,0.4c-0.5,0.8-1,1.6-1.6,2.3h2.8v6.3h-5.2v1.6h6.6V98.9z
				 M292.1,92.7h4v-1.8h-4V92.7z M296,95.4v-1.8h-4v1.8H296z M301.2,90.9h-4.1v1.8h4.1V90.9z M301.2,93.6h-4.1v1.8h4.1V93.6z"/>
			<path class="st8" d="M308.6,99c0.4,0,0.8,0.4,1.6,0.9c1,0.6,2.3,0.7,4,0.7c1.8,0,4.3-0.1,5.8-0.3c-0.1,0.3-0.3,0.8-0.3,1.1
				c-1.2,0.1-4,0.2-5.6,0.2c-1.9,0-3.2-0.2-4.2-0.8c-0.6-0.4-1.1-0.8-1.4-0.8c-0.6,0-1.5,0.8-2.4,1.8l-0.7-0.9
				c0.7-0.7,1.5-1.3,2.2-1.6v-4.9h-2v-1h3V99z M308.1,91c-0.5-0.8-1.6-1.9-2.5-2.7l0.8-0.6c1,0.7,2.1,1.8,2.6,2.6L308.1,91z
				 M313.7,93.8c-0.3,2.6-1.1,4.4-3.8,5.4c-0.1-0.3-0.4-0.7-0.6-0.8c2.4-0.8,3.1-2.4,3.4-4.6h-2.9v-0.9h4.5v-2.4h-2.4
				c-0.3,0.6-0.7,1.2-1,1.6c-0.2-0.2-0.6-0.4-0.9-0.5c0.8-0.9,1.5-2.4,1.9-3.8l1,0.2c-0.1,0.5-0.3,1.1-0.5,1.6h2v-2.2h1.1v2.2h3.7
				v0.9h-3.7v2.4h4.4v0.9h-3.2v3.9c0,0.4,0.1,0.4,0.5,0.4h1.4c0.4,0,0.5-0.2,0.5-1.9c0.2,0.2,0.7,0.3,1,0.4c-0.1,2-0.4,2.5-1.4,2.5
				h-1.6c-1.1,0-1.4-0.3-1.4-1.4v-3.9H313.7z"/>
			<path class="st8" d="M335.8,100.3v1h-13.5V88.1h13.2v1h-12.1v11.1H335.8z M332.9,99.1c-0.8-1-2.1-2.3-3.5-3.7
				c-1.4,1.4-2.9,2.7-4.4,3.7c-0.2-0.2-0.6-0.6-0.8-0.8c1.6-1,3.1-2.2,4.5-3.6c-1.3-1.2-2.7-2.5-4-3.5l0.8-0.6
				c1.2,1,2.6,2.2,3.9,3.4c1.1-1.2,2.1-2.6,2.9-4l1,0.4c-0.9,1.5-1.9,3-3.1,4.3c1.4,1.3,2.8,2.7,3.6,3.7L332.9,99.1z"/>
		</g>
	</g>
	<g>
		<g>
			<path class="st7" d="M206.1,178.8c-1.2,2.8-2.8,5.2-4.7,6.8c-0.3-0.4-1.1-1.2-1.6-1.5c1.7-1.3,3.1-3.1,4.1-5.3h-3.7V177h4.5
				c0.3-0.7,0.5-1.4,0.7-2.2l2,0.4c-0.2,0.6-0.4,1.2-0.6,1.8h7.5v1.8H206.1z M202.2,176.2h-1.9v-3.3h6.1c-0.1-0.4-0.3-0.8-0.4-1.1
				l2-0.5c0.2,0.5,0.6,1.2,0.8,1.7h5.4v3.3h-2v-1.6h-10.1V176.2z M212.6,186.3c-0.2-0.3-0.4-0.6-0.6-1c-6.2,0.5-7.1,0.5-7.7,0.8
				c-0.1-0.4-0.4-1.3-0.6-1.8c0.4-0.1,0.7-0.4,1.1-0.9c0.5-0.5,1.8-2.4,2.8-4.3l2,0.6c-0.9,1.6-1.9,3.1-2.9,4.4l4.3-0.3
				c-0.5-0.8-1.1-1.5-1.6-2.2l1.6-0.9c1.1,1.4,2.7,3.4,3.4,4.5L212.6,186.3z"/>
			<path class="st7" d="M229.4,179.5c-0.7,1.4-1.6,2.6-2.8,3.5c0.6,0.9,1.2,1.5,1.9,1.5c0.4,0,0.6-0.6,0.7-2.1
				c0.4,0.4,1,0.7,1.5,0.9c-0.3,2.5-0.9,3-2.4,3c-1.3,0-2.4-0.8-3.2-2.1c-1.4,0.9-2.9,1.6-4.5,2.1c-0.2-0.4-0.8-1.3-1.2-1.6
				c1.8-0.5,3.4-1.2,4.8-2.1c-0.5-1.1-0.8-2.3-1.1-3.7h-3.8v0.6c0,2-0.3,4.9-2,6.8c-0.3-0.3-1.2-0.9-1.6-1.1c1.6-1.7,1.7-4,1.7-5.7
				v-2.3h5.4c-0.1-0.6-0.1-1.3-0.1-1.9h1.9c0,0.7,0.1,1.3,0.1,1.9h3.4c-0.4-0.4-1-0.8-1.5-1.2l1.2-1c0.7,0.4,1.5,1,2,1.4l-0.8,0.8
				h1.6v1.7h-2.8L229.4,179.5z M219.5,174.3h-3.3v-1.7h3.3v-1.2h1.9v1.2h3.7v-1.2h1.9v1.2h3.4v1.7H227v1.3h-1.9v-1.3h-3.7v1.4h-1.9
				V174.3z M225.1,178.9c0.2,0.9,0.4,1.7,0.7,2.4c0.7-0.7,1.3-1.5,1.8-2.4H225.1z"/>
			<path class="st7" d="M244.7,177.1c0.6,0.9,1.4,1.9,2.3,2.4c-0.4,0.3-1,0.9-1.2,1.4c-0.3-0.2-0.5-0.4-0.8-0.7v6H243v-6.7h1.3
				c-0.6-0.7-1.1-1.6-1.5-2.4h-1.3c-0.4,0.9-0.9,1.7-1.6,2.4h1.3v1.4c0,1.8-0.5,4-2.9,5.4c-0.3-0.4-1-1.1-1.4-1.3
				c2.2-1.2,2.5-2.8,2.5-4.2v-0.8c-0.4,0.3-0.8,0.6-1.2,0.9c-0.2-0.4-0.7-1.1-1-1.5l-0.8,1c-0.1-0.4-0.4-1-0.7-1.6v7.4H234v-6.2
				c-0.4,1.3-0.9,2.5-1.5,3.3c-0.2-0.5-0.6-1.4-0.9-1.9c1-1.3,1.8-3.5,2.3-5.4h-2v-1.8h2.1v-3h1.7v3h1.6v1.8h-1.6v0.5
				c0.4,0.6,1.5,2.2,1.8,2.6c0.8-0.5,1.5-1.2,2-2.1h-1.8v-1.7h2.6c0.1-0.5,0.3-1,0.4-1.6c-0.7,0.1-1.5,0.1-2.2,0.1
				c-0.1-0.5-0.3-1.1-0.5-1.6c2.4-0.1,5.2-0.5,6.9-0.9l1.1,1.6c-1,0.2-2.2,0.4-3.4,0.6c-0.1,0.6-0.3,1.2-0.4,1.8h4.4v1.7H244.7z"/>
			<path class="st7" d="M208.8,201.4c1.5,1.2,3.9,2.2,5.9,2.7c-0.2,0.2-0.5,0.6-0.7,0.8c-2.1-0.6-4.6-1.9-6.2-3.3v3.6h-1.1v-3.5
				c-1.6,1.4-4.1,2.7-6.2,3.4c-0.2-0.3-0.5-0.7-0.7-0.9c2-0.5,4.4-1.6,5.9-2.8h-5.6v-0.9h6.5v-1.1h1.1v1.1h6.6v0.9H208.8z
				 M202.1,194.5c-0.4,0.5-1,1-1.5,1.4c-0.2-0.2-0.5-0.5-0.8-0.7c1.7-1.4,3-3.2,3.7-4.6l1.1,0.2c-0.3,0.5-0.6,1-0.9,1.6h3.8
				c-0.2-0.5-0.5-1.1-0.8-1.5l0.9-0.3c0.4,0.5,0.8,1.3,0.9,1.8h4.7v0.9h-5.2v1.1h4.6v0.8h-4.6v1.1h4.6v0.8h-4.6v1.2h5.7v0.9h-10.8
				v0.5h-1.1V194.5z M207.1,193.4h-4v1.1h4V193.4z M207.1,195.3h-4v1.1h4V195.3z M207.1,197.2h-4v1.2h4V197.2z"/>
			<path class="st7" d="M219.2,202.5c0.4,0,0.8,0.4,1.6,0.9c1,0.6,2.3,0.7,4,0.7c1.8,0,4.3-0.1,5.8-0.3c-0.1,0.3-0.3,0.8-0.3,1.1
				c-1.2,0.1-4,0.2-5.6,0.2c-1.9,0-3.2-0.2-4.2-0.8c-0.6-0.4-1.1-0.8-1.4-0.8c-0.6,0-1.5,0.8-2.4,1.8l-0.7-0.9
				c0.7-0.7,1.5-1.3,2.2-1.6v-4.9h-2v-1h3V202.5z M218.8,194.5c-0.5-0.8-1.6-1.9-2.5-2.7l0.8-0.6c1,0.7,2.1,1.8,2.6,2.6L218.8,194.5
				z M224.4,197.3c-0.3,2.6-1.1,4.4-3.8,5.4c-0.1-0.3-0.4-0.7-0.6-0.8c2.4-0.8,3.1-2.4,3.4-4.6h-2.9v-0.9h4.5v-2.4h-2.4
				c-0.3,0.6-0.7,1.2-1,1.6c-0.2-0.2-0.6-0.4-0.9-0.5c0.8-0.9,1.5-2.4,1.9-3.8l1,0.2c-0.1,0.5-0.3,1.1-0.5,1.6h2v-2.2h1.1v2.2h3.7
				v0.9H226v2.4h4.4v0.9h-3.2v3.9c0,0.4,0.1,0.4,0.5,0.4h1.4c0.4,0,0.5-0.2,0.5-1.9c0.2,0.2,0.7,0.3,1,0.4c-0.1,2-0.4,2.5-1.4,2.5
				h-1.6c-1.1,0-1.4-0.3-1.4-1.4v-3.9H224.4z"/>
			<path class="st7" d="M246.4,203.8v1h-13.5v-13.2H246v1h-12.1v11.1H246.4z M243.6,202.6c-0.8-1-2.1-2.3-3.5-3.7
				c-1.4,1.4-2.9,2.7-4.4,3.7c-0.2-0.2-0.6-0.6-0.8-0.8c1.6-1,3.1-2.2,4.5-3.6c-1.3-1.2-2.7-2.5-4-3.5l0.8-0.6
				c1.2,1,2.6,2.2,3.9,3.4c1.1-1.2,2.1-2.6,2.9-4l1,0.4c-0.9,1.5-1.9,3-3.1,4.3c1.4,1.3,2.8,2.7,3.6,3.7L243.6,202.6z"/>
		</g>
	</g>
	<g>
		<g>
			<path class="st8" d="M68.1,202.7c-0.2-0.5-0.5-1.2-0.8-1.8v7.7h-1.8v-5.8c-0.4,1.2-0.8,2.2-1.2,2.9c-0.2-0.6-0.6-1.4-0.9-1.9
				c0.9-1.2,1.6-3.5,2-5.4h-1.7v-1.8h1.8v-3h1.8v3h1.6v1.8h-1.6v0.1c0.4,0.6,1.7,2.5,2,3L68.1,202.7z M78.5,198.5c0,0,0,0.6,0,0.8
				c-0.3,5.4-0.7,7.5-1.2,8.2c-0.4,0.5-0.8,0.7-1.3,0.8c-0.4,0.1-1.1,0.1-1.9,0c0-0.5-0.2-1.3-0.5-1.8c0.6,0.1,1.2,0.1,1.5,0.1
				c0.3,0,0.4,0,0.6-0.3c0.4-0.4,0.7-2,0.9-6.1h-0.6c-1.1,3.6-3,6.4-5.5,8.1c-0.3-0.3-1-0.8-1.4-1.1c2.6-1.4,4.3-3.9,5.2-7.1h-1
				c-0.7,2-2,3.7-3.5,4.8c-0.3-0.3-1-0.8-1.4-1c1.4-0.8,2.5-2.2,3.1-3.8h-0.1c-0.6,0-1.3,0.1-1.4,0.2c-0.1-0.4-0.5-1.3-0.8-1.8
				c0.5-0.1,1.1-0.4,1.7-0.8c0.4-0.3,1.5-1,2.7-1.9h-4.4v-1.8h6.5l0.4-0.2l1.4,1.1c-1.4,1.3-2.9,2.4-4.4,3.3H78.5z"/>
			<path class="st8" d="M94.3,195.9H82.7v3.2c0,2.7-0.2,6.8-1.6,9.4c-0.4-0.3-1.2-0.8-1.7-0.9c1.3-2.4,1.4-6,1.4-8.5v-4.9h13.4
				V195.9z M91.3,199.8h2.8v1.5h-11v-1.5h2.5v-1.2h-2v-1.5h2v-1h1.8v1h2.1v-1h1.9v1h2.2v1.5h-2.2V199.8z M84.2,201.9h8.6v6.4H91V208
				h-4.9v0.4h-1.8V201.9z M86.1,203.5v0.8H91v-0.8H86.1z M91,206.5v-0.8h-4.9v0.8H91z M87.4,199.8h2.1v-1.2h-2.1V199.8z"/>
			<path class="st8" d="M98.1,201.1c-0.6-0.5-1.7-1.2-2.6-1.7l1.1-1.4c0.8,0.4,2,1,2.7,1.5L98.1,201.1z M103.6,205.1v1
				c0,0.6,0.1,0.7,1.1,0.7h2.9c0.7,0,0.9-0.2,1-1.6c0.4,0.3,1.1,0.5,1.5,0.6c-0.2,2-0.7,2.6-2.3,2.6h-3.2c-2,0-2.5-0.5-2.5-2.2v-3.1
				c-0.5,0.5-0.9,1-1.5,1.4c-0.2-0.3-0.6-0.7-0.9-1.1c-0.6,1.6-1.3,3.3-2,4.8l-1.7-1.1c0.7-1.2,1.6-3.1,2.3-4.9l1.1,0.8
				c1-0.7,2-1.9,2.7-3.1h-2.4v-1.7h2.6v-1.2h-2v-1.7h2v-1.6h1.8v1.6h2.2v-1.6h1.9v1.6h2.1v1.7H108v1.2h2.5v1.7h-2.5
				c0.6,1.1,1.6,2.1,2.7,2.8c-0.4,0.4-1,1-1.3,1.5c-0.5-0.4-1-0.9-1.5-1.4v2.5H103.6z M98.9,196.9c-0.5-0.5-1.7-1.2-2.5-1.7l1.1-1.3
				c0.8,0.4,2,1.1,2.5,1.6L98.9,196.9z M103.9,199.8c-0.2,0.5-0.4,0.9-0.7,1.4h3.7c-0.3-0.4-0.5-0.9-0.7-1.4H103.9z M106.4,202.5
				h-2.9v1.2h2.9V202.5z M104,198.1h2.2v-1.2H104V198.1z"/>
			<path class="st8" d="M78.2,224.6h-6.6v2.9h-1.1v-2.9H64v-1h6.5V222h-5v-6.3h3c-0.4-0.6-1-1.6-1.6-2.3l0.9-0.4
				c0.7,0.7,1.4,1.7,1.7,2.4l-0.6,0.3h3.9c0.6-0.8,1.2-1.9,1.6-2.7l1.1,0.4c-0.5,0.8-1,1.6-1.6,2.3h2.8v6.3h-5.2v1.6h6.6V224.6z
				 M66.6,218.4h4v-1.8h-4V218.4z M70.5,221.1v-1.8h-4v1.8H70.5z M75.7,216.6h-4.1v1.8h4.1V216.6z M75.7,219.3h-4.1v1.8h4.1V219.3z"
				/>
			<path class="st8" d="M83.1,224.7c0.4,0,0.8,0.4,1.6,0.9c1,0.6,2.3,0.7,4,0.7c1.8,0,4.3-0.1,5.8-0.3c-0.1,0.3-0.3,0.8-0.3,1.1
				c-1.2,0.1-4,0.2-5.6,0.2c-1.9,0-3.2-0.2-4.2-0.8c-0.6-0.4-1.1-0.8-1.4-0.8c-0.6,0-1.5,0.8-2.4,1.8l-0.7-0.9
				c0.7-0.7,1.5-1.3,2.2-1.6V220h-2v-1h3V224.7z M82.6,216.7c-0.5-0.8-1.6-1.9-2.5-2.7l0.8-0.6c1,0.7,2.1,1.8,2.6,2.6L82.6,216.7z
				 M88.2,219.5c-0.3,2.6-1.1,4.4-3.8,5.4c-0.1-0.3-0.4-0.7-0.6-0.8c2.4-0.8,3.1-2.4,3.4-4.6h-2.9v-0.9h4.5v-2.4h-2.4
				c-0.3,0.6-0.7,1.2-1,1.6c-0.2-0.2-0.6-0.4-0.9-0.5c0.8-0.9,1.5-2.4,1.9-3.8l1,0.2c-0.1,0.5-0.3,1.1-0.5,1.6h2V213h1.1v2.2h3.7
				v0.9h-3.7v2.4h4.4v0.9H91v3.9c0,0.4,0.1,0.4,0.5,0.4h1.4c0.4,0,0.5-0.2,0.5-1.9c0.2,0.2,0.7,0.3,1,0.4c-0.1,2-0.4,2.5-1.4,2.5
				h-1.6c-1.1,0-1.4-0.3-1.4-1.4v-3.9H88.2z"/>
			<path class="st8" d="M110.3,226v1H96.7v-13.2h13.2v1H97.8V226H110.3z M107.4,224.8c-0.8-1-2.1-2.3-3.5-3.7
				c-1.4,1.4-2.9,2.7-4.4,3.7c-0.2-0.2-0.6-0.6-0.8-0.8c1.6-1,3.1-2.2,4.5-3.6c-1.3-1.2-2.7-2.5-4-3.5l0.8-0.6
				c1.2,1,2.6,2.2,3.9,3.4c1.1-1.2,2.1-2.6,2.9-4l1,0.4c-0.9,1.5-1.9,3-3.1,4.3c1.4,1.3,2.8,2.7,3.6,3.7L107.4,224.8z"/>
		</g>
	</g>
	<g>
		<path class="st9" d="M308.6,106v43"/>
		<g>
			<circle class="st6" cx="308.6" cy="152.4" r="3.8"/>
			<path class="st7" d="M308.6,155.7c-1.8,0-3.3-1.5-3.3-3.3s1.5-3.3,3.3-3.3c1.8,0,3.3,1.5,3.3,3.3S310.4,155.7,308.6,155.7
				 M308.6,156.7c2.4,0,4.3-1.9,4.3-4.3s-1.9-4.3-4.3-4.3c-2.4,0-4.3,1.9-4.3,4.3S306.2,156.7,308.6,156.7L308.6,156.7z"/>
		</g>
	</g>
	<g>
		<g>
			<path class="st8" d="M298.9,247.8c-0.2,1.4-0.7,2.8-1.5,3.9c-0.3-0.3-1.2-0.9-1.6-1.2c1.3-1.5,1.4-3.6,1.4-5.1v-1.7h6
				c-0.1-0.5-0.1-1.1-0.2-1.6h1.9c0,0.6,0.1,1.1,0.2,1.6h1.8c-0.4-0.4-0.8-0.7-1.2-1l1.3-0.8c0.6,0.4,1.4,1,1.8,1.4l-0.5,0.4h2v1.6
				h-4.8c0.2,0.8,0.5,1.5,0.8,2c0.5-0.6,1-1.2,1.4-1.8l1.7,0.5c-0.6,1-1.3,2-2.1,2.8c0.4,0.4,0.9,0.7,1.3,0.7c0.4,0,0.5-0.5,0.6-1.7
				c0.4,0.4,1,0.7,1.5,0.8c-0.3,2.1-0.9,2.6-2.2,2.6c-1,0-1.9-0.5-2.7-1.3c-0.7,0.5-1.4,0.9-2.2,1.3c-0.2-0.3-0.7-0.9-1.1-1.3
				c0,0.1-0.1,0.2-0.2,0.3c-0.3,0.3-0.6,0.4-1,0.5c-0.4,0-1,0.1-1.7,0c0-0.4-0.2-1-0.4-1.4c0.5,0.1,0.9,0.1,1.2,0.1
				c0.2,0,0.3,0,0.4-0.1c0.1-0.1,0.2-0.5,0.2-1.3H298.9z M308.8,255h1.8v1.7H296V255h1.9v-3.6h10.9V255z M299.1,245.3v0.1
				c0,0.3,0,0.6,0,0.9h3.7c0,0,0,0.4,0,0.6c0,1.4-0.1,2.3-0.3,2.8c0.8-0.3,1.6-0.7,2.3-1.2c-0.5-0.9-1-2-1.3-3.3H299.1z M299.7,255
				h1.2v-2.1h-1.2V255z M302.6,252.9v2.1h1.2v-2.1H302.6z M305.6,252.9v2.1h1.3v-2.1H305.6z"/>
			<path class="st8" d="M314.3,249.6c-0.6-0.5-1.7-1.2-2.6-1.7l1.1-1.4c0.8,0.4,2,1,2.7,1.5L314.3,249.6z M319.8,253.6v1
				c0,0.6,0.1,0.7,1.1,0.7h2.9c0.7,0,0.9-0.2,1-1.6c0.4,0.3,1.1,0.5,1.5,0.6c-0.2,2-0.7,2.6-2.3,2.6h-3.2c-2,0-2.5-0.5-2.5-2.2v-3.1
				c-0.5,0.5-0.9,1-1.5,1.4c-0.2-0.3-0.6-0.7-0.9-1.1c-0.6,1.6-1.3,3.3-2,4.8l-1.7-1.1c0.7-1.2,1.6-3.1,2.3-4.9l1.1,0.8
				c1-0.7,2-1.9,2.7-3.1h-2.4v-1.7h2.6v-1.2h-2v-1.7h2v-1.6h1.8v1.6h2.2v-1.6h1.9v1.6h2.1v1.7h-2.1v1.2h2.5v1.7h-2.5
				c0.6,1.1,1.6,2.1,2.7,2.8c-0.4,0.4-1,1-1.3,1.5c-0.5-0.4-1-0.9-1.5-1.4v2.5H319.8z M315.1,245.4c-0.5-0.5-1.7-1.2-2.5-1.7
				l1.1-1.3c0.8,0.4,2,1.1,2.5,1.6L315.1,245.4z M320,248.3c-0.2,0.5-0.4,0.9-0.7,1.4h3.7c-0.3-0.4-0.5-0.9-0.7-1.4H320z M322.6,251
				h-2.9v1.2h2.9V251z M320.1,246.6h2.2v-1.2h-2.2V246.6z"/>
			<path class="st8" d="M296.8,272.1c1.5,1.2,3.9,2.2,5.9,2.7c-0.2,0.2-0.5,0.6-0.7,0.8c-2.1-0.6-4.6-1.9-6.2-3.3v3.6h-1.1v-3.5
				c-1.6,1.4-4.1,2.7-6.2,3.4c-0.2-0.3-0.5-0.7-0.7-0.9c2-0.5,4.4-1.6,5.9-2.8h-5.6v-0.9h6.5v-1.1h1.1v1.1h6.6v0.9H296.8z
				 M290.1,265.2c-0.4,0.5-1,1-1.5,1.4c-0.2-0.2-0.5-0.5-0.8-0.7c1.7-1.4,3-3.2,3.7-4.6l1.1,0.2c-0.3,0.5-0.6,1-0.9,1.6h3.8
				c-0.2-0.5-0.5-1.1-0.8-1.5l0.9-0.3c0.4,0.5,0.8,1.3,0.9,1.8h4.7v0.9h-5.2v1.1h4.6v0.8h-4.6v1.1h4.6v0.8h-4.6v1.2h5.7v0.9h-10.8
				v0.5h-1.1V265.2z M295.1,264h-4v1.1h4V264z M295.1,265.9h-4v1.1h4V265.9z M295.1,267.8h-4v1.2h4V267.8z"/>
			<path class="st8" d="M307.2,273.2c0.4,0,0.8,0.4,1.6,0.9c1,0.6,2.3,0.7,4,0.7c1.8,0,4.3-0.1,5.8-0.3c-0.1,0.3-0.3,0.8-0.3,1.1
				c-1.2,0.1-4,0.2-5.6,0.2c-1.9,0-3.2-0.2-4.2-0.8c-0.6-0.4-1.1-0.8-1.4-0.8c-0.6,0-1.5,0.8-2.4,1.8l-0.7-0.9
				c0.7-0.7,1.5-1.3,2.2-1.6v-4.9h-2v-1h3V273.2z M306.8,265.2c-0.5-0.8-1.6-1.9-2.5-2.7l0.8-0.6c1,0.7,2.1,1.8,2.6,2.6L306.8,265.2
				z M312.4,268c-0.3,2.6-1.1,4.4-3.8,5.4c-0.1-0.3-0.4-0.7-0.6-0.8c2.4-0.8,3.1-2.4,3.4-4.6h-2.9V267h4.5v-2.4h-2.4
				c-0.3,0.6-0.7,1.2-1,1.6c-0.2-0.2-0.6-0.4-0.9-0.5c0.8-0.9,1.5-2.4,1.9-3.8l1,0.2c-0.1,0.5-0.3,1.1-0.5,1.6h2v-2.2h1.1v2.2h3.7
				v0.9H314v2.4h4.4v0.9h-3.2v3.9c0,0.4,0.1,0.4,0.5,0.4h1.4c0.4,0,0.5-0.2,0.5-1.9c0.2,0.2,0.7,0.3,1,0.4c-0.1,2-0.4,2.5-1.4,2.5
				h-1.6c-1.1,0-1.4-0.3-1.4-1.4V268H312.4z"/>
			<path class="st8" d="M334.4,274.5v1h-13.5v-13.2H334v1h-12.1v11.1H334.4z M331.6,273.3c-0.8-1-2.1-2.3-3.5-3.7
				c-1.4,1.4-2.9,2.7-4.4,3.7c-0.2-0.2-0.6-0.6-0.8-0.8c1.6-1,3.1-2.2,4.5-3.6c-1.3-1.2-2.7-2.5-4-3.5l0.8-0.6
				c1.2,1,2.6,2.2,3.9,3.4c1.1-1.2,2.1-2.6,2.9-4l1,0.4c-0.9,1.5-1.9,3-3.1,4.3c1.4,1.3,2.8,2.7,3.6,3.7L331.6,273.3z"/>
		</g>
	</g>
	<g>
		<path class="st10" d="M311.4,237.7v-31.3"/>
		<g>
			<circle class="st6" cx="311.4" cy="203" r="3.8"/>
			<path class="st7" d="M311.4,199.7c1.8,0,3.3,1.5,3.3,3.3s-1.5,3.3-3.3,3.3c-1.8,0-3.3-1.5-3.3-3.3S309.6,199.7,311.4,199.7
				 M311.4,198.7c-2.4,0-4.3,1.9-4.3,4.3s1.9,4.3,4.3,4.3c2.4,0,4.3-1.9,4.3-4.3S313.8,198.7,311.4,198.7L311.4,198.7z"/>
		</g>
	</g>
	<g>
		<g>
			<path class="st8" d="M126.2,96.3c-1.1,3.2-2.6,6.1-4.9,8.5c1.7,1.3,3.7,2.3,6,2.9c-0.4,0.4-1,1.2-1.3,1.7
				c-2.5-0.7-4.5-1.8-6.3-3.3c-1.7,1.4-3.9,2.5-6.5,3.4c-0.2-0.5-0.7-1.2-1-1.7c2.4-0.7,4.5-1.7,6.1-3c-2-2.1-3.4-4.6-4.5-7.6
				l1.8-0.5c0.9,2.6,2.3,5,4.2,6.9c2.1-2.2,3.5-4.8,4.3-7.8L126.2,96.3z M119.6,99c-0.3-1.1-1-2.7-1.7-4l1.7-0.6
				c0.7,1.2,1.4,2.8,1.7,3.9L119.6,99z"/>
			<path class="st8" d="M128.9,95.1h1.6v6.9c0,2.9-0.1,5.4-1.2,7.4c-0.3-0.4-0.9-0.9-1.3-1.2c0.8-1.7,0.9-3.8,0.9-6.3V95.1z
				 M131.2,96.3h1.4v11h-1.4V96.3z M140.1,103.5c0,0.6,0,1.2-0.2,1.8c1.1,0.9,2.5,2.2,3.2,3l-1.4,1.1c-0.5-0.7-1.5-1.7-2.5-2.6
				c-0.6,1-1.6,1.9-3.3,2.7c-0.2-0.4-0.7-0.9-1.1-1.2v0.6h-1.6V95h1.6v13.2c3-1.2,3.4-3.2,3.4-4.7v-2.9h1.8V103.5z M143.1,95.1v1.6
				h-3.1c-0.2,0.4-0.3,0.8-0.5,1.2h3.1v7.7h-1.8v-6h-3.5v6h-1.7V98h2.1c0.1-0.4,0.2-0.8,0.3-1.2h-2.7v-1.6H143.1z"/>
			<path class="st8" d="M113.3,124.6c1.5,1.2,3.9,2.2,5.9,2.7c-0.2,0.2-0.5,0.6-0.7,0.8c-2.1-0.6-4.6-1.9-6.2-3.3v3.6h-1.1v-3.5
				c-1.6,1.4-4.1,2.7-6.2,3.4c-0.2-0.3-0.5-0.7-0.7-0.9c2-0.5,4.4-1.6,5.9-2.8h-5.6v-0.9h6.5v-1.1h1.1v1.1h6.6v0.9H113.3z
				 M106.6,117.7c-0.4,0.5-1,1-1.5,1.4c-0.2-0.2-0.5-0.5-0.8-0.7c1.7-1.4,3-3.2,3.7-4.6l1.1,0.2c-0.3,0.5-0.6,1-0.9,1.6h3.8
				c-0.2-0.5-0.5-1.1-0.8-1.5l0.9-0.3c0.4,0.5,0.8,1.3,0.9,1.8h4.7v0.9h-5.2v1.1h4.6v0.8h-4.6v1.1h4.6v0.8h-4.6v1.2h5.7v0.9h-10.8
				v0.5h-1.1V117.7z M111.6,116.5h-4v1.1h4V116.5z M111.6,118.4h-4v1.1h4V118.4z M111.6,120.3h-4v1.2h4V120.3z"/>
			<path class="st8" d="M123.7,125.7c0.4,0,0.8,0.4,1.6,0.9c1,0.6,2.3,0.7,4,0.7c1.8,0,4.3-0.1,5.8-0.3c-0.1,0.3-0.3,0.8-0.3,1.1
				c-1.2,0.1-4,0.2-5.6,0.2c-1.9,0-3.2-0.2-4.2-0.8c-0.6-0.4-1.1-0.8-1.4-0.8c-0.6,0-1.5,0.8-2.4,1.8l-0.7-0.9
				c0.7-0.7,1.5-1.3,2.2-1.6V121h-2v-1h3V125.7z M123.3,117.7c-0.5-0.8-1.6-1.9-2.5-2.7l0.8-0.6c1,0.7,2.1,1.8,2.6,2.6L123.3,117.7z
				 M128.9,120.5c-0.3,2.6-1.1,4.4-3.8,5.4c-0.1-0.3-0.4-0.7-0.6-0.8c2.4-0.8,3.1-2.4,3.4-4.6h-2.9v-0.9h4.5v-2.4H127
				c-0.3,0.6-0.7,1.2-1,1.6c-0.2-0.2-0.6-0.4-0.9-0.5c0.8-0.9,1.5-2.4,1.9-3.8l1,0.2c-0.1,0.5-0.3,1.1-0.5,1.6h2V114h1.1v2.2h3.7
				v0.9h-3.7v2.4h4.4v0.9h-3.2v3.9c0,0.4,0.1,0.4,0.5,0.4h1.4c0.4,0,0.5-0.2,0.5-1.9c0.2,0.2,0.7,0.3,1,0.4c-0.1,2-0.4,2.5-1.4,2.5
				H132c-1.1,0-1.4-0.3-1.4-1.4v-3.9H128.9z"/>
			<path class="st8" d="M150.9,127v1h-13.5v-13.2h13.2v1h-12.1V127H150.9z M148.1,125.8c-0.8-1-2.1-2.3-3.5-3.7
				c-1.4,1.4-2.9,2.7-4.4,3.7c-0.2-0.2-0.6-0.6-0.8-0.8c1.6-1,3.1-2.2,4.5-3.6c-1.3-1.2-2.7-2.5-4-3.5l0.8-0.6
				c1.2,1,2.6,2.2,3.9,3.4c1.1-1.2,2.1-2.6,2.9-4l1,0.4c-0.9,1.5-1.9,3-3.1,4.3c1.4,1.3,2.8,2.7,3.6,3.7L148.1,125.8z"/>
		</g>
	</g>
</g>
</svg>
